# This file uses centimeters as units for non-parametric coordinates.

g default
v -2.641289 -1.256116 6.414952
v 2.641289 -1.256116 6.414952
v -2.641289 1.256116 6.414952
v 2.641289 1.256116 6.414952
v -2.641289 1.256116 -6.414952
v 2.641289 1.256116 -6.414952
v -2.641289 -1.256116 -6.414952
v 2.641289 -1.256116 -6.414952
v -2.553246 1.256116 6.338624
v 2.553246 1.256116 6.338624
v 2.553246 1.256116 -6.338624
v -2.553246 1.256116 -6.338624
v -2.553246 -1.256116 -6.338624
v 2.553246 -1.256116 -6.338624
v 2.553246 -1.256116 6.338624
v -2.553246 -1.256116 6.338624
v 2.641289 1.256116 -6.399505
v 2.641289 -1.256116 -6.399504
v 2.553246 -1.256116 -6.323359
v 2.553246 1.256116 -6.323360
v 2.609108 1.256116 -6.414952
v 2.522137 1.256116 -6.338624
v 2.522137 -1.256116 -6.338624
v 2.609108 -1.256116 -6.414952
v -2.605483 1.256116 -6.414952
v -2.518634 1.256116 -6.338623
v -2.518634 -1.256116 -6.338623
v -2.605483 -1.256116 -6.414952
v -2.641289 1.256116 -6.354010
v -2.553246 1.256116 -6.278406
v -2.553246 -1.256116 -6.278404
v -2.641289 -1.256116 -6.354008
v -2.641289 1.256116 6.380409
v -2.553246 1.256116 6.304491
v -2.553246 -1.256116 6.304495
v -2.641289 -1.256116 6.380412
v -2.610879 -1.256116 6.414952
v -2.523850 -1.256116 6.338623
v -2.523850 1.256116 6.338623
v -2.610879 1.256116 6.414952
v 2.597570 -1.256116 6.414952
v 2.597570 1.256116 6.414952
v 2.510984 1.256116 6.338624
v 2.510984 -1.256116 6.338624
v 2.641289 1.256116 6.362691
v 2.641289 -1.256116 6.362695
v 2.553246 -1.256116 6.286988
v 2.553246 1.256116 6.286985
vt 0.375000 0.000000
vt 0.625000 0.000000
vt 0.375000 0.250000
vt 0.625000 0.250000
vt 0.375000 0.500000
vt 0.625000 0.500000
vt 0.375000 0.750000
vt 0.625000 0.750000
vt 0.375000 1.000000
vt 0.625000 1.000000
vt 0.875000 0.000000
vt 0.875000 0.250000
vt 0.125000 0.000000
vt 0.125000 0.250000
vt 0.375000 0.250000
vt 0.625000 0.250000
vt 0.625000 0.500000
vt 0.375000 0.500000
vt 0.375000 0.750000
vt 0.625000 0.750000
vt 0.625000 1.000000
vt 0.375000 1.000000
vt 0.625000 0.499699
vt 0.874699 0.250000
vt 0.625000 0.750301
vt 0.874699 0.000000
vt 0.625000 0.750301
vt 0.625000 0.499699
vt 0.623477 0.500000
vt 0.623477 0.500000
vt 0.623477 0.750000
vt 0.623477 0.750000
vt 0.376695 0.500000
vt 0.376695 0.500000
vt 0.376695 0.750000
vt 0.376695 0.750000
vt 0.126188 0.250000
vt 0.375000 0.498812
vt 0.375000 0.498812
vt 0.375000 0.751188
vt 0.126188 0.000000
vt 0.375000 0.751188
vt 0.374327 0.250000
vt 0.375000 0.250673
vt 0.375000 0.250673
vt 0.375000 0.999327
vt 0.374327 0.000000
vt 0.375000 0.999327
vt 0.376439 0.000000
vt 0.376439 1.000000
vt 0.376439 1.000000
vt 0.376439 0.250000
vt 0.376439 0.250000
vt 0.622931 0.000000
vt 0.622931 1.000000
vt 0.622931 0.250000
vt 0.622931 0.250000
vt 0.622931 1.000000
vt 0.625000 0.251018
vt 0.626018 0.250000
vt 0.625000 0.998982
vt 0.626018 0.000000
vt 0.625000 0.998982
vt 0.625000 0.251018
vn 0.000000 0.000000 1.000000
vn 0.000000 0.000000 1.000000
vn 0.000000 0.000000 1.000000
vn 0.000000 0.000000 1.000000
vn 0.000000 0.000000 -1.000000
vn 0.000000 0.000000 -1.000000
vn 0.000000 0.000000 -1.000000
vn 0.000000 0.000000 -1.000000
vn 1.000000 0.000000 0.000000
vn 1.000000 0.000000 0.000000
vn 1.000000 0.000000 0.000000
vn 1.000000 0.000000 0.000000
vn -1.000000 0.000000 0.000000
vn -1.000000 -0.000000 0.000000
vn -1.000000 -0.000000 0.000000
vn -1.000000 0.000000 0.000000
vn 0.000000 1.000000 -0.000001
vn 0.000000 1.000000 -0.000001
vn 0.000000 1.000000 -0.000001
vn 0.000000 1.000000 -0.000001
vn 0.000000 1.000000 0.000000
vn 0.000000 1.000000 0.000000
vn 0.000000 1.000000 0.000000
vn 0.000000 1.000000 0.000000
vn 0.000000 1.000000 0.000000
vn 0.000000 1.000000 0.000000
vn 0.000000 1.000000 0.000000
vn 0.000000 1.000000 0.000000
vn 0.000000 1.000000 0.000000
vn 0.000000 1.000000 0.000000
vn 0.000000 -1.000000 0.000000
vn 0.000000 -1.000000 0.000000
vn 0.000000 -1.000000 0.000000
vn 0.000000 -1.000000 0.000000
vn 0.000000 -1.000000 0.000000
vn 0.000000 -1.000000 0.000000
vn 0.000000 -1.000000 0.000000
vn 0.000000 -1.000000 0.000000
vn 0.000000 -1.000000 0.000000
vn 0.000000 -1.000000 0.000000
vn 0.000000 -1.000000 0.000000
vn 0.000000 -1.000000 0.000000
vn 0.000000 -1.000000 0.000000
vn 0.000000 -1.000000 0.000000
vn -1.000000 0.000000 0.000000
vn -1.000000 0.000000 0.000000
vn -1.000000 0.000000 0.000000
vn -1.000000 0.000000 0.000000
vn 0.000000 0.000000 1.000000
vn 0.000000 0.000000 1.000000
vn 0.000000 0.000000 1.000000
vn 0.000000 0.000000 1.000000
vn 1.000000 0.000000 0.000000
vn 1.000000 -0.000000 0.000000
vn 1.000000 -0.000000 0.000000
vn 1.000000 0.000000 0.000000
vn -0.000000 0.000000 -1.000000
vn -0.000000 0.000000 -1.000000
vn 0.000000 0.000000 -1.000000
vn 0.000000 0.000000 -1.000000
vn 1.000000 0.000000 0.000000
vn 1.000000 0.000000 0.000000
vn 0.000000 -1.000000 0.000000
vn 0.000000 -1.000000 0.000000
vn -1.000000 0.000000 0.000000
vn -1.000000 0.000000 0.000000
vn 0.000000 1.000000 0.000000
vn 0.000000 1.000000 0.000000
vn 0.000000 1.000000 0.000000
vn 0.000000 1.000000 0.000000
vn 0.000000 0.000000 1.000000
vn 0.000000 0.000000 1.000000
vn 0.000000 -1.000000 0.000000
vn 0.000000 -1.000000 0.000000
vn 0.000000 0.000000 -1.000000
vn 0.000000 0.000000 -1.000000
vn -0.000011 0.000000 1.000000
vn -0.000011 0.000000 1.000000
vn 0.000000 0.000000 -1.000000
vn 0.000000 0.000000 -1.000000
vn 0.000000 1.000000 0.000000
vn 0.000000 1.000000 0.000000
vn 1.000000 -0.000000 0.000000
vn 1.000000 -0.000000 0.000000
vn 0.000000 -1.000000 0.000000
vn 0.000000 -1.000000 0.000000
vn -1.000000 -0.000000 0.000000
vn -1.000000 -0.000000 0.000000
vn 0.000000 1.000000 0.000000
vn 0.000000 1.000000 0.000000
vn 1.000000 -0.000000 0.000000
vn 1.000000 -0.000000 0.000000
vn 0.000000 -1.000000 0.000000
vn 0.000000 -1.000000 0.000000
vn -1.000000 0.000000 0.000000
vn -1.000000 0.000000 0.000000
vn -0.000013 0.000000 -1.000000
vn -0.000013 0.000000 -1.000000
vn 0.000000 0.000000 1.000000
vn 0.000000 0.000000 1.000000
vn 0.000000 0.000000 1.000000
vn 0.000000 0.000000 1.000000
vn 0.000000 1.000000 0.000000
vn 0.000000 1.000000 0.000000
vn 0.000000 0.000000 -1.000000
vn 0.000000 0.000000 -1.000000
vn 0.000000 -1.000000 0.000000
vn 0.000000 -1.000000 0.000000
vn 1.000000 0.000000 0.000000
vn 1.000000 0.000000 0.000000
vn -1.000000 0.000000 0.000000
vn -1.000000 0.000000 0.000000
g pCube1
f 40/53/1 37/49/2 41/54/3 42/56/4
f 24/32/5 21/29/6 6/6/7 8/8/8
f 17/24/9 18/26/10 8/11/11 6/12/12
f 7/13/13 32/41/14 29/37/15 5/14/16
f 39/52/17 40/53/18 42/56/19 43/57/20
f 20/28/21 17/23/22 6/6/23 11/17/24
f 6/6/23 21/29/25 22/30/26 11/17/24
f 5/5/27 29/38/28 30/39/29 12/18/30
f 23/31/31 24/32/32 8/8/33 14/20/34
f 8/8/33 18/25/35 19/27/36 14/20/34
f 44/58/37 41/55/38 37/50/39 38/51/40
f 31/40/41 32/42/42 7/7/43 13/19/44
f 19/27/45 20/28/46 11/17/47 14/20/48
f 11/17/49 22/30/50 23/31/51 14/20/52
f 12/18/53 30/39/54 31/40/55 13/19/56
f 38/51/57 39/52/58 43/57/59 44/58/60
f 45/60/61 46/62/62 18/26/10 17/24/9
f 19/27/36 18/25/35 46/61/63 47/63/64
f 47/63/65 48/64/66 20/28/46 19/27/45
f 48/64/67 45/59/68 17/23/22 20/28/21
f 22/30/26 21/29/25 25/33/69 26/34/70
f 23/31/51 22/30/50 26/34/71 27/35/72
f 27/35/73 28/36/74 24/32/32 23/31/31
f 28/36/75 25/33/76 21/29/6 24/32/5
f 26/34/70 25/33/69 5/5/27 12/18/30
f 27/35/72 26/34/71 12/18/77 13/19/78
f 7/7/43 28/36/74 27/35/73 13/19/44
f 5/5/79 25/33/76 28/36/75 7/7/80
f 30/39/29 29/38/28 33/44/81 34/45/82
f 31/40/55 30/39/54 34/45/83 35/46/84
f 35/46/85 36/48/86 32/42/42 31/40/41
f 29/37/15 32/41/14 36/47/87 33/43/88
f 34/45/82 33/44/81 3/3/89 9/15/90
f 35/46/84 34/45/83 9/15/91 16/22/92
f 1/9/93 36/48/86 35/46/85 16/22/94
f 33/43/88 36/47/87 1/1/95 3/3/96
f 38/51/40 37/50/39 1/9/93 16/22/94
f 9/15/97 39/52/58 38/51/57 16/22/98
f 3/3/89 40/53/18 39/52/17 9/15/90
f 1/1/99 37/49/2 40/53/1 3/3/100
f 42/56/4 41/54/3 2/2/101 4/4/102
f 43/57/20 42/56/19 4/4/103 10/16/104
f 44/58/60 43/57/59 10/16/105 15/21/106
f 2/10/107 41/55/38 44/58/37 15/21/108
f 2/2/109 46/62/62 45/60/61 4/4/110
f 47/63/64 46/61/63 2/10/107 15/21/108
f 10/16/111 48/64/66 47/63/65 15/21/112
f 4/4/103 45/59/68 48/64/67 10/16/104
g default
v -2.308580 -0.740423 6.042242
v -1.846864 -0.754249 6.042242
v -1.385148 -0.778669 6.042242
v -0.923432 -0.804724 6.042242
v -0.461716 -0.824204 6.042242
v 0.000000 -0.831380 6.042242
v 0.461716 -0.824204 6.042242
v 0.923432 -0.804724 6.042242
v 1.385148 -0.778669 6.042242
v 1.846864 -0.754249 6.042242
v 2.308580 -0.740423 6.042242
v -2.308580 -0.763067 5.438018
v -1.846864 -0.804724 5.438018
v -1.385148 -0.854962 5.438018
v -0.923432 -0.902052 5.438018
v -0.461716 -0.935242 5.438018
v 0.000000 -0.947178 5.438018
v 0.461716 -0.935242 5.438018
v 0.923432 -0.902052 5.438018
v 1.385148 -0.854962 5.438018
v 1.846864 -0.804724 5.438018
v 2.308580 -0.763067 5.438018
v -2.308580 -0.802064 4.833794
v -1.846864 -0.868623 4.833794
v -1.385148 -0.941905 4.833794
v -0.923432 -1.007495 4.833794
v -0.461716 -1.052680 4.833794
v 0.000000 -1.068770 4.833794
v 0.461716 -1.052680 4.833794
v 0.923432 -1.007495 4.833794
v 1.385148 -0.941905 4.833794
v 1.846864 -0.868623 4.833794
v 2.308580 -0.802064 4.833794
v -2.308580 -0.836526 4.229570
v -1.846864 -0.920390 4.229570
v -1.385148 -1.009470 4.229570
v -0.923432 -1.087719 4.229570
v -0.461716 -1.141087 4.229570
v 0.000000 -1.160006 4.229570
v 0.461716 -1.141087 4.229570
v 0.923432 -1.087719 4.229570
v 1.385148 -1.009470 4.229570
v 1.846864 -0.920390 4.229570
v 2.308580 -0.836526 4.229570
v -2.308580 -0.850071 3.625346
v -1.846864 -0.940118 3.625346
v -1.385148 -1.034824 3.625346
v -0.923432 -1.117570 3.625346
v -0.461716 -1.173841 3.625346
v 0.000000 -1.193763 3.625346
v 0.461716 -1.173841 3.625346
v 0.923432 -1.117570 3.625346
v 1.385148 -1.034824 3.625346
v 1.846864 -0.940118 3.625346
v 2.308580 -0.850071 3.625346
v -2.308580 -0.836526 3.021121
v -1.846864 -0.920390 3.021121
v -1.385148 -1.009470 3.021121
v -0.923432 -1.087719 3.021121
v -0.461716 -1.141087 3.021121
v 0.000000 -1.160006 3.021121
v 0.461716 -1.141087 3.021121
v 0.923432 -1.087719 3.021121
v 1.385148 -1.009470 3.021121
v 1.846864 -0.920390 3.021121
v 2.308580 -0.836526 3.021121
v -2.308580 -0.802064 2.416897
v -1.846864 -0.868623 2.416897
v -1.385148 -0.941905 2.416897
v -0.923432 -1.007495 2.416897
v -0.461716 -1.052680 2.416897
v 0.000000 -1.068770 2.416897
v 0.461716 -1.052680 2.416897
v 0.923432 -1.007495 2.416897
v 1.385148 -0.941905 2.416897
v 1.846864 -0.868623 2.416897
v 2.308580 -0.802064 2.416897
v -2.308580 -0.763067 1.812673
v -1.846864 -0.804724 1.812673
v -1.385148 -0.854962 1.812673
v -0.923432 -0.902052 1.812673
v -0.461716 -0.935242 1.812673
v 0.000000 -0.947178 1.812673
v 0.461716 -0.935242 1.812673
v 0.923432 -0.902052 1.812673
v 1.385148 -0.854962 1.812673
v 1.846864 -0.804724 1.812673
v 2.308580 -0.763067 1.812673
v -2.308580 -0.740423 1.208448
v -1.846864 -0.754249 1.208448
v -1.385148 -0.778669 1.208448
v -0.923432 -0.804724 1.208448
v -0.461716 -0.824204 1.208448
v 0.000000 -0.831380 1.208448
v 0.461716 -0.824204 1.208448
v 0.923432 -0.804724 1.208448
v 1.385148 -0.778669 1.208448
v 1.846864 -0.754249 1.208448
v 2.308580 -0.740423 1.208448
v -2.308580 -0.739567 0.604224
v -1.846864 -0.739567 0.604224
v -1.385148 -0.741452 0.604224
v -0.923432 -0.750782 0.604224
v -0.461716 -0.760511 0.604224
v 0.000000 -0.764494 0.604224
v 0.461716 -0.760511 0.604224
v 0.923432 -0.750782 0.604224
v 1.385148 -0.741452 0.604224
v 1.846864 -0.739567 0.604224
v 2.308580 -0.739567 0.604224
v -2.308580 -0.740025 0.000000
v -1.846864 -0.747429 0.000000
v -1.385148 -0.760841 0.000000
v -0.923432 -0.776596 0.000000
v -0.461716 -0.788936 0.000000
v 0.000000 -0.793563 0.000000
v 0.461716 -0.788936 0.000000
v 0.923432 -0.776596 0.000000
v 1.385148 -0.760841 0.000000
v 1.846864 -0.747429 0.000000
v 2.308580 -0.740025 0.000000
v -2.308580 -0.752486 -0.604224
v -1.846864 -0.778803 -0.604224
v -1.385148 -0.813114 -0.604224
v -0.923432 -0.846280 -0.604224
v -0.461716 -0.870011 -0.604224
v 0.000000 -0.878599 -0.604224
v 0.461716 -0.870011 -0.604224
v 0.923432 -0.846280 -0.604224
v 1.385148 -0.813114 -0.604224
v 1.846864 -0.778803 -0.604224
v 2.308580 -0.752486 -0.604224
v -2.308580 -0.780025 -1.208449
v -1.846864 -0.828379 -1.208449
v -1.385148 -0.882936 -1.208449
v -0.923432 -0.932482 -1.208449
v -0.461716 -0.966841 -1.208449
v 0.000000 -0.979110 -1.208449
v 0.461716 -0.966841 -1.208449
v 0.923432 -0.932482 -1.208449
v 1.385148 -0.882936 -1.208449
v 1.846864 -0.828379 -1.208449
v 2.308580 -0.780025 -1.208449
v -2.308580 -0.810293 -1.812673
v -1.846864 -0.875532 -1.812673
v -1.385148 -0.945677 -1.812673
v -0.923432 -1.007657 -1.812673
v -0.461716 -1.050040 -1.812673
v 0.000000 -1.065079 -1.812673
v 0.461716 -1.050040 -1.812673
v 0.923432 -1.007657 -1.812673
v 1.385148 -0.945677 -1.812673
v 1.846864 -0.875532 -1.812673
v 2.308580 -0.810293 -1.812673
v -2.308580 -0.828004 -2.416897
v -1.846864 -0.901870 -2.416897
v -1.385148 -0.979872 -2.416897
v -0.923432 -1.048119 -2.416897
v -0.461716 -1.094533 -2.416897
v 0.000000 -1.110962 -2.416897
v 0.461716 -1.094533 -2.416897
v 0.923432 -1.048119 -2.416897
v 1.385148 -0.979872 -2.416897
v 1.846864 -0.901870 -2.416897
v 2.308580 -0.828004 -2.416897
v -2.308580 -0.824826 -3.021121
v -1.846864 -0.897261 -3.021121
v -1.385148 -0.973975 -3.021121
v -0.923432 -1.041208 -3.021121
v -0.461716 -1.086977 -3.021121
v 0.000000 -1.103185 -3.021121
v 0.461716 -1.086977 -3.021121
v 0.923432 -1.041208 -3.021121
v 1.385148 -0.973975 -3.021121
v 1.846864 -0.897261 -3.021121
v 2.308580 -0.824826 -3.021121
v -2.308580 -0.802296 -3.625346
v -1.846864 -0.863417 -3.625346
v -1.385148 -0.929925 -3.625346
v -0.923432 -0.989023 -3.625346
v -0.461716 -1.029564 -3.625346
v 0.000000 -1.043970 -3.625346
v 0.461716 -1.029564 -3.625346
v 0.923432 -0.989023 -3.625346
v 1.385148 -0.929925 -3.625346
v 1.846864 -0.863417 -3.625346
v 2.308580 -0.802296 -3.625346
v -2.308580 -0.770829 -4.229570
v -1.846864 -0.813338 -4.229570
v -1.385148 -0.862593 -4.229570
v -0.923432 -0.907871 -4.229570
v -0.461716 -0.939483 -4.229570
v 0.000000 -0.950804 -4.229570
v 0.461716 -0.939483 -4.229570
v 0.923432 -0.907871 -4.229570
v 1.385148 -0.862593 -4.229570
v 1.846864 -0.813338 -4.229570
v 2.308580 -0.770829 -4.229570
v -2.308580 -0.747016 -4.833795
v -1.846864 -0.766869 -4.833795
v -1.385148 -0.795185 -4.833795
v -0.923432 -0.823458 -4.833795
v -0.461716 -0.844005 -4.833795
v 0.000000 -0.851490 -4.833795
v 0.461716 -0.844005 -4.833795
v 0.923432 -0.823458 -4.833795
v 1.385148 -0.795185 -4.833795
v 1.846864 -0.766869 -4.833795
v 2.308580 -0.747016 -4.833795
v -2.308580 -0.739901 -5.438018
v -1.846864 -0.743911 -5.438018
v -1.385148 -0.751827 -5.438018
v -0.923432 -0.762918 -5.438018
v -0.461716 -0.772201 -5.438018
v 0.000000 -0.775761 -5.438018
v 0.461716 -0.772201 -5.438018
v 0.923432 -0.762918 -5.438018
v 1.385148 -0.751827 -5.438018
v 1.846864 -0.743911 -5.438018
v 2.308580 -0.739901 -5.438018
v -2.308580 -0.739567 -6.042242
v -1.846864 -0.739567 -6.042242
v -1.385148 -0.739901 -6.042242
v -0.923432 -0.741703 -6.042242
v -0.461716 -0.743612 -6.042242
v 0.000000 -0.744321 -6.042242
v 0.461716 -0.743612 -6.042242
v 0.923432 -0.741703 -6.042242
v 1.385148 -0.739901 -6.042242
v 1.846864 -0.739567 -6.042242
v 2.308580 -0.739567 -6.042242
v -2.308580 -0.776117 6.042242
v -1.846864 -0.789942 6.042242
v -1.846864 -0.840418 5.438018
v -2.308580 -0.798761 5.438018
v -1.385148 -0.814363 6.042242
v -1.385148 -0.890656 5.438018
v -0.923432 -0.840418 6.042242
v -0.923432 -0.937746 5.438018
v -0.461716 -0.859897 6.042242
v -0.461716 -0.970936 5.438018
v 0.000000 -0.867074 6.042242
v 0.000000 -0.982872 5.438018
v 0.461716 -0.859897 6.042242
v 0.461716 -0.970936 5.438018
v 0.923432 -0.840418 6.042242
v 0.923432 -0.937746 5.438018
v 1.385148 -0.814363 6.042242
v 1.385148 -0.890656 5.438018
v 1.846864 -0.789942 6.042242
v 1.846864 -0.840418 5.438018
v 2.308580 -0.776117 6.042242
v 2.308580 -0.798761 5.438018
v -1.846864 -0.904316 4.833794
v -2.308580 -0.837757 4.833794
v -1.385148 -0.977599 4.833794
v -0.923432 -1.043189 4.833794
v -0.461716 -1.088374 4.833794
v 0.000000 -1.104463 4.833794
v 0.461716 -1.088374 4.833794
v 0.923432 -1.043189 4.833794
v 1.385148 -0.977599 4.833794
v 1.846864 -0.904316 4.833794
v 2.308580 -0.837757 4.833794
v -1.846864 -0.956084 4.229570
v -2.308580 -0.872220 4.229570
v -1.385148 -1.045164 4.229570
v -0.923432 -1.123413 4.229570
v -0.461716 -1.176780 4.229570
v 0.000000 -1.195699 4.229570
v 0.461716 -1.176780 4.229570
v 0.923432 -1.123413 4.229570
v 1.385148 -1.045164 4.229570
v 1.846864 -0.956084 4.229570
v 2.308580 -0.872220 4.229570
v -1.846864 -0.975812 3.625346
v -2.308580 -0.885764 3.625346
v -1.385148 -1.070517 3.625346
v -0.923432 -1.153264 3.625346
v -0.461716 -1.209535 3.625346
v 0.000000 -1.229457 3.625346
v 0.461716 -1.209535 3.625346
v 0.923432 -1.153264 3.625346
v 1.385148 -1.070517 3.625346
v 1.846864 -0.975812 3.625346
v 2.308580 -0.885764 3.625346
v -1.846864 -0.956084 3.021121
v -2.308580 -0.872220 3.021121
v -1.385148 -1.045164 3.021121
v -0.923432 -1.123413 3.021121
v -0.461716 -1.176780 3.021121
v 0.000000 -1.195699 3.021121
v 0.461716 -1.176780 3.021121
v 0.923432 -1.123413 3.021121
v 1.385148 -1.045164 3.021121
v 1.846864 -0.956084 3.021121
v 2.308580 -0.872220 3.021121
v -1.846864 -0.904316 2.416897
v -2.308580 -0.837757 2.416897
v -1.385148 -0.977599 2.416897
v -0.923432 -1.043189 2.416897
v -0.461716 -1.088374 2.416897
v 0.000000 -1.104463 2.416897
v 0.461716 -1.088374 2.416897
v 0.923432 -1.043189 2.416897
v 1.385148 -0.977599 2.416897
v 1.846864 -0.904316 2.416897
v 2.308580 -0.837757 2.416897
v -1.846864 -0.840418 1.812673
v -2.308580 -0.798761 1.812673
v -1.385148 -0.890656 1.812673
v -0.923432 -0.937746 1.812673
v -0.461716 -0.970936 1.812673
v 0.000000 -0.982872 1.812673
v 0.461716 -0.970936 1.812673
v 0.923432 -0.937746 1.812673
v 1.385148 -0.890656 1.812673
v 1.846864 -0.840418 1.812673
v 2.308580 -0.798761 1.812673
v -1.846864 -0.789942 1.208448
v -2.308580 -0.776117 1.208448
v -1.385148 -0.814363 1.208448
v -0.923432 -0.840418 1.208448
v -0.461716 -0.859897 1.208448
v 0.000000 -0.867074 1.208448
v 0.461716 -0.859897 1.208448
v 0.923432 -0.840418 1.208448
v 1.385148 -0.814363 1.208448
v 1.846864 -0.789942 1.208448
v 2.308580 -0.776117 1.208448
v -1.846864 -0.775260 0.604224
v -2.308580 -0.775260 0.604224
v -1.385148 -0.777145 0.604224
v -0.923432 -0.786475 0.604224
v -0.461716 -0.796204 0.604224
v 0.000000 -0.800188 0.604224
v 0.461716 -0.796204 0.604224
v 0.923432 -0.786475 0.604224
v 1.385148 -0.777145 0.604224
v 1.846864 -0.775260 0.604224
v 2.308580 -0.775260 0.604224
v -1.846864 -0.783123 0.000000
v -2.308580 -0.775719 0.000000
v -1.385148 -0.796534 0.000000
v -0.923432 -0.812289 0.000000
v -0.461716 -0.824629 0.000000
v 0.000000 -0.829257 0.000000
v 0.461716 -0.824629 0.000000
v 0.923432 -0.812289 0.000000
v 1.385148 -0.796534 0.000000
v 1.846864 -0.783123 0.000000
v 2.308580 -0.775719 0.000000
v -1.846864 -0.814497 -0.604224
v -2.308580 -0.788179 -0.604224
v -1.385148 -0.848807 -0.604224
v -0.923432 -0.881974 -0.604224
v -0.461716 -0.905704 -0.604224
v 0.000000 -0.914293 -0.604224
v 0.461716 -0.905704 -0.604224
v 0.923432 -0.881974 -0.604224
v 1.385148 -0.848807 -0.604224
v 1.846864 -0.814497 -0.604224
v 2.308580 -0.788179 -0.604224
v -1.846864 -0.864072 -1.208449
v -2.308580 -0.815718 -1.208449
v -1.385148 -0.918630 -1.208449
v -0.923432 -0.968175 -1.208449
v -0.461716 -1.002535 -1.208449
v 0.000000 -1.014804 -1.208449
v 0.461716 -1.002535 -1.208449
v 0.923432 -0.968175 -1.208449
v 1.385148 -0.918630 -1.208449
v 1.846864 -0.864072 -1.208449
v 2.308580 -0.815718 -1.208449
v -1.846864 -0.911225 -1.812673
v -2.308580 -0.845986 -1.812673
v -1.385148 -0.981371 -1.812673
v -0.923432 -1.043351 -1.812673
v -0.461716 -1.085733 -1.812673
v 0.000000 -1.100772 -1.812673
v 0.461716 -1.085733 -1.812673
v 0.923432 -1.043351 -1.812673
v 1.385148 -0.981371 -1.812673
v 1.846864 -0.911225 -1.812673
v 2.308580 -0.845986 -1.812673
v -1.846864 -0.937564 -2.416897
v -2.308580 -0.863697 -2.416897
v -1.385148 -1.015565 -2.416897
v -0.923432 -1.083812 -2.416897
v -0.461716 -1.130227 -2.416897
v 0.000000 -1.146655 -2.416897
v 0.461716 -1.130227 -2.416897
v 0.923432 -1.083812 -2.416897
v 1.385148 -1.015565 -2.416897
v 1.846864 -0.937564 -2.416897
v 2.308580 -0.863697 -2.416897
v -1.846864 -0.932955 -3.021121
v -2.308580 -0.860520 -3.021121
v -1.385148 -1.009668 -3.021121
v -0.923432 -1.076901 -3.021121
v -0.461716 -1.122671 -3.021121
v 0.000000 -1.138878 -3.021121
v 0.461716 -1.122671 -3.021121
v 0.923432 -1.076901 -3.021121
v 1.385148 -1.009668 -3.021121
v 1.846864 -0.932955 -3.021121
v 2.308580 -0.860520 -3.021121
v -1.846864 -0.899111 -3.625346
v -2.308580 -0.837989 -3.625346
v -1.385148 -0.965619 -3.625346
v -0.923432 -1.024717 -3.625346
v -0.461716 -1.065257 -3.625346
v 0.000000 -1.079664 -3.625346
v 0.461716 -1.065257 -3.625346
v 0.923432 -1.024717 -3.625346
v 1.385148 -0.965619 -3.625346
v 1.846864 -0.899111 -3.625346
v 2.308580 -0.837989 -3.625346
v -1.846864 -0.849031 -4.229570
v -2.308580 -0.806523 -4.229570
v -1.385148 -0.898286 -4.229570
v -0.923432 -0.943565 -4.229570
v -0.461716 -0.975176 -4.229570
v 0.000000 -0.986497 -4.229570
v 0.461716 -0.975176 -4.229570
v 0.923432 -0.943565 -4.229570
v 1.385148 -0.898286 -4.229570
v 1.846864 -0.849031 -4.229570
v 2.308580 -0.806523 -4.229570
v -1.846864 -0.802563 -4.833795
v -2.308580 -0.782709 -4.833795
v -1.385148 -0.830879 -4.833795
v -0.923432 -0.859151 -4.833795
v -0.461716 -0.879699 -4.833795
v 0.000000 -0.887184 -4.833795
v 0.461716 -0.879699 -4.833795
v 0.923432 -0.859151 -4.833795
v 1.385148 -0.830879 -4.833795
v 1.846864 -0.802563 -4.833795
v 2.308580 -0.782709 -4.833795
v -1.846864 -0.779604 -5.438018
v -2.308580 -0.775595 -5.438018
v -1.385148 -0.787520 -5.438018
v -0.923432 -0.798612 -5.438018
v -0.461716 -0.807895 -5.438018
v 0.000000 -0.811455 -5.438018
v 0.461716 -0.807895 -5.438018
v 0.923432 -0.798612 -5.438018
v 1.385148 -0.787520 -5.438018
v 1.846864 -0.779604 -5.438018
v 2.308580 -0.775595 -5.438018
v -1.846864 -0.775260 -6.042242
v -2.308580 -0.775260 -6.042242
v -1.385148 -0.775595 -6.042242
v -0.923432 -0.777397 -6.042242
v -0.461716 -0.779305 -6.042242
v 0.000000 -0.780015 -6.042242
v 0.461716 -0.779305 -6.042242
v 0.923432 -0.777397 -6.042242
v 1.385148 -0.775595 -6.042242
v 1.846864 -0.775260 -6.042242
v 2.308580 -0.775260 -6.042242
v 2.292983 -0.740890 6.042242
v 2.292983 -0.776584 6.042242
v 2.292983 -0.800168 5.438018
v 2.292983 -0.840006 4.833794
v 2.292983 -0.875052 4.229570
v 2.292983 -0.888806 3.625346
v 2.292983 -0.875052 3.021121
v 2.292983 -0.840006 2.416897
v 2.292983 -0.800168 1.812673
v 2.292983 -0.776584 1.208448
v 2.292983 -0.775260 0.604224
v 2.292983 -0.775969 0.000000
v 2.292983 -0.789068 -0.604224
v 2.292983 -0.817352 -1.208449
v 2.292983 -0.848190 -1.812673
v 2.292983 -0.866193 -2.416897
v 2.292983 -0.862967 -3.021121
v 2.292983 -0.840054 -3.625346
v 2.292983 -0.807958 -4.229570
v 2.292983 -0.783380 -4.833795
v 2.292983 -0.775730 -5.438018
v 2.292983 -0.775260 -6.042242
v 2.292983 -0.739567 -6.042242
v 2.292983 -0.740036 -5.438018
v 2.292983 -0.747686 -4.833795
v 2.292983 -0.772265 -4.229570
v 2.292983 -0.804360 -3.625346
v 2.292983 -0.827273 -3.021121
v 2.292983 -0.830499 -2.416897
v 2.292983 -0.812496 -1.812673
v 2.292983 -0.781658 -1.208449
v 2.292983 -0.753375 -0.604224
v 2.292983 -0.740275 0.000000
v 2.292983 -0.739567 0.604224
v 2.292983 -0.740890 1.208448
v 2.292983 -0.764474 1.812673
v 2.292983 -0.804312 2.416897
v 2.292983 -0.839359 3.021121
v 2.292983 -0.853112 3.625346
v 2.292983 -0.839359 4.229570
v 2.292983 -0.804312 4.833794
v 2.292983 -0.764474 5.438018
v -2.308580 -0.741289 6.019142
v -1.846864 -0.756178 6.019142
v -1.385148 -0.781586 6.019142
v -0.923432 -0.808445 6.019142
v -0.461716 -0.828449 6.019142
v 0.000000 -0.835807 6.019142
v 0.461716 -0.828449 6.019142
v 0.923432 -0.808445 6.019142
v 1.385148 -0.781586 6.019142
v 1.846864 -0.756178 6.019142
v 2.292983 -0.741792 6.019142
v 2.308580 -0.741289 6.019142
v 2.308580 -0.776982 6.019142
v 2.292983 -0.777485 6.019142
v 1.846864 -0.791872 6.019142
v 1.385148 -0.817280 6.019142
v 0.923432 -0.844139 6.019142
v 0.461716 -0.864142 6.019142
v 0.000000 -0.871501 6.019142
v -0.461716 -0.864142 6.019142
v -0.923432 -0.844139 6.019142
v -1.385148 -0.817280 6.019142
v -1.846864 -0.791872 6.019142
v -2.308580 -0.776982 6.019142
v -2.291116 -0.740946 6.042242
v -2.291116 -0.776640 6.042242
v -2.291117 -0.777546 6.019142
v -2.291116 -0.800336 5.438018
v -2.291116 -0.840275 4.833794
v -2.291116 -0.875392 4.229570
v -2.291116 -0.889170 3.625346
v -2.291116 -0.875392 3.021121
v -2.291116 -0.840275 2.416897
v -2.291116 -0.800336 1.812673
v -2.291116 -0.776640 1.208448
v -2.291116 -0.775260 0.604224
v -2.291116 -0.775999 0.000000
v -2.291116 -0.789175 -0.604224
v -2.291116 -0.817547 -1.208449
v -2.291116 -0.848454 -1.812673
v -2.291116 -0.866491 -2.416897
v -2.291116 -0.863260 -3.021121
v -2.291116 -0.840301 -3.625346
v -2.291116 -0.808130 -4.229570
v -2.291116 -0.783460 -4.833795
v -2.291116 -0.775746 -5.438018
v -2.291116 -0.775260 -6.042242
v -2.291116 -0.739567 -6.042242
v -2.291116 -0.740053 -5.438018
v -2.291116 -0.747767 -4.833795
v -2.291116 -0.772437 -4.229570
v -2.291116 -0.804608 -3.625346
v -2.291116 -0.827566 -3.021121
v -2.291116 -0.830798 -2.416897
v -2.291116 -0.812760 -1.812673
v -2.291116 -0.781854 -1.208449
v -2.291116 -0.753481 -0.604224
v -2.291116 -0.740305 0.000000
v -2.291116 -0.739567 0.604224
v -2.291116 -0.740946 1.208448
v -2.291116 -0.764643 1.812673
v -2.291116 -0.804581 2.416897
v -2.291116 -0.839698 3.021121
v -2.291116 -0.853477 3.625346
v -2.291116 -0.839698 4.229570
v -2.291116 -0.804581 4.833794
v -2.291116 -0.764643 5.438018
v -2.291116 -0.741852 6.019142
v -2.308580 -0.739576 -6.026408
v -2.291116 -0.739579 -6.026408
v -1.846864 -0.739681 -6.026408
v -1.385148 -0.740213 -6.026408
v -0.923432 -0.742259 -6.026408
v -0.461716 -0.744361 -6.026408
v 0.000000 -0.745145 -6.026408
v 0.461716 -0.744361 -6.026408
v 0.923432 -0.742259 -6.026408
v 1.385148 -0.740213 -6.026408
v 1.846864 -0.739681 -6.026408
v 2.292983 -0.739579 -6.026408
v 2.308580 -0.739576 -6.026408
v 2.308580 -0.775269 -6.026408
v 2.292983 -0.775273 -6.026408
v 1.846864 -0.775374 -6.026408
v 1.385148 -0.775907 -6.026408
v 0.923432 -0.777953 -6.026408
v 0.461716 -0.780055 -6.026408
v 0.000000 -0.780839 -6.026408
v -0.461716 -0.780055 -6.026408
v -0.923432 -0.777953 -6.026408
v -1.385148 -0.775907 -6.026408
v -1.846864 -0.775374 -6.026408
v -2.291116 -0.775273 -6.026408
v -2.308580 -0.775269 -6.026408
vt 0.000000 0.000000
vt 0.100000 0.000000
vt 0.200000 0.000000
vt 0.300000 0.000000
vt 0.400000 0.000000
vt 0.500000 0.000000
vt 0.600000 0.000000
vt 0.700000 0.000000
vt 0.800000 0.000000
vt 0.900000 0.000000
vt 1.000000 0.000000
vt 0.000000 0.050000
vt 0.100000 0.050000
vt 0.200000 0.050000
vt 0.300000 0.050000
vt 0.400000 0.050000
vt 0.500000 0.050000
vt 0.600000 0.050000
vt 0.700000 0.050000
vt 0.800000 0.050000
vt 0.900000 0.050000
vt 1.000000 0.050000
vt 0.000000 0.100000
vt 0.100000 0.100000
vt 0.200000 0.100000
vt 0.300000 0.100000
vt 0.400000 0.100000
vt 0.500000 0.100000
vt 0.600000 0.100000
vt 0.700000 0.100000
vt 0.800000 0.100000
vt 0.900000 0.100000
vt 1.000000 0.100000
vt 0.000000 0.150000
vt 0.100000 0.150000
vt 0.200000 0.150000
vt 0.300000 0.150000
vt 0.400000 0.150000
vt 0.500000 0.150000
vt 0.600000 0.150000
vt 0.700000 0.150000
vt 0.800000 0.150000
vt 0.900000 0.150000
vt 1.000000 0.150000
vt 0.000000 0.200000
vt 0.100000 0.200000
vt 0.200000 0.200000
vt 0.300000 0.200000
vt 0.400000 0.200000
vt 0.500000 0.200000
vt 0.600000 0.200000
vt 0.700000 0.200000
vt 0.800000 0.200000
vt 0.900000 0.200000
vt 1.000000 0.200000
vt 0.000000 0.250000
vt 0.100000 0.250000
vt 0.200000 0.250000
vt 0.300000 0.250000
vt 0.400000 0.250000
vt 0.500000 0.250000
vt 0.600000 0.250000
vt 0.700000 0.250000
vt 0.800000 0.250000
vt 0.900000 0.250000
vt 1.000000 0.250000
vt 0.000000 0.300000
vt 0.100000 0.300000
vt 0.200000 0.300000
vt 0.300000 0.300000
vt 0.400000 0.300000
vt 0.500000 0.300000
vt 0.600000 0.300000
vt 0.700000 0.300000
vt 0.800000 0.300000
vt 0.900000 0.300000
vt 1.000000 0.300000
vt 0.000000 0.350000
vt 0.100000 0.350000
vt 0.200000 0.350000
vt 0.300000 0.350000
vt 0.400000 0.350000
vt 0.500000 0.350000
vt 0.600000 0.350000
vt 0.700000 0.350000
vt 0.800000 0.350000
vt 0.900000 0.350000
vt 1.000000 0.350000
vt 0.000000 0.400000
vt 0.100000 0.400000
vt 0.200000 0.400000
vt 0.300000 0.400000
vt 0.400000 0.400000
vt 0.500000 0.400000
vt 0.600000 0.400000
vt 0.700000 0.400000
vt 0.800000 0.400000
vt 0.900000 0.400000
vt 1.000000 0.400000
vt 0.000000 0.450000
vt 0.100000 0.450000
vt 0.200000 0.450000
vt 0.300000 0.450000
vt 0.400000 0.450000
vt 0.500000 0.450000
vt 0.600000 0.450000
vt 0.700000 0.450000
vt 0.800000 0.450000
vt 0.900000 0.450000
vt 1.000000 0.450000
vt 0.000000 0.500000
vt 0.100000 0.500000
vt 0.200000 0.500000
vt 0.300000 0.500000
vt 0.400000 0.500000
vt 0.500000 0.500000
vt 0.600000 0.500000
vt 0.700000 0.500000
vt 0.800000 0.500000
vt 0.900000 0.500000
vt 1.000000 0.500000
vt 0.000000 0.550000
vt 0.100000 0.550000
vt 0.200000 0.550000
vt 0.300000 0.550000
vt 0.400000 0.550000
vt 0.500000 0.550000
vt 0.600000 0.550000
vt 0.700000 0.550000
vt 0.800000 0.550000
vt 0.900000 0.550000
vt 1.000000 0.550000
vt 0.000000 0.600000
vt 0.100000 0.600000
vt 0.200000 0.600000
vt 0.300000 0.600000
vt 0.400000 0.600000
vt 0.500000 0.600000
vt 0.600000 0.600000
vt 0.700000 0.600000
vt 0.800000 0.600000
vt 0.900000 0.600000
vt 1.000000 0.600000
vt 0.000000 0.650000
vt 0.100000 0.650000
vt 0.200000 0.650000
vt 0.300000 0.650000
vt 0.400000 0.650000
vt 0.500000 0.650000
vt 0.600000 0.650000
vt 0.700000 0.650000
vt 0.800000 0.650000
vt 0.900000 0.650000
vt 1.000000 0.650000
vt 0.000000 0.700000
vt 0.100000 0.700000
vt 0.200000 0.700000
vt 0.300000 0.700000
vt 0.400000 0.700000
vt 0.500000 0.700000
vt 0.600000 0.700000
vt 0.700000 0.700000
vt 0.800000 0.700000
vt 0.900000 0.700000
vt 1.000000 0.700000
vt 0.000000 0.750000
vt 0.100000 0.750000
vt 0.200000 0.750000
vt 0.300000 0.750000
vt 0.400000 0.750000
vt 0.500000 0.750000
vt 0.600000 0.750000
vt 0.700000 0.750000
vt 0.800000 0.750000
vt 0.900000 0.750000
vt 1.000000 0.750000
vt 0.000000 0.800000
vt 0.100000 0.800000
vt 0.200000 0.800000
vt 0.300000 0.800000
vt 0.400000 0.800000
vt 0.500000 0.800000
vt 0.600000 0.800000
vt 0.700000 0.800000
vt 0.800000 0.800000
vt 0.900000 0.800000
vt 1.000000 0.800000
vt 0.000000 0.850000
vt 0.100000 0.850000
vt 0.200000 0.850000
vt 0.300000 0.850000
vt 0.400000 0.850000
vt 0.500000 0.850000
vt 0.600000 0.850000
vt 0.700000 0.850000
vt 0.800000 0.850000
vt 0.900000 0.850000
vt 1.000000 0.850000
vt 0.000000 0.900000
vt 0.100000 0.900000
vt 0.200000 0.900000
vt 0.300000 0.900000
vt 0.400000 0.900000
vt 0.500000 0.900000
vt 0.600000 0.900000
vt 0.700000 0.900000
vt 0.800000 0.900000
vt 0.900000 0.900000
vt 1.000000 0.900000
vt 0.000000 0.950000
vt 0.100000 0.950000
vt 0.200000 0.950000
vt 0.300000 0.950000
vt 0.400000 0.950000
vt 0.500000 0.950000
vt 0.600000 0.950000
vt 0.700000 0.950000
vt 0.800000 0.950000
vt 0.900000 0.950000
vt 1.000000 0.950000
vt 0.000000 1.000000
vt 0.100000 1.000000
vt 0.200000 1.000000
vt 0.300000 1.000000
vt 0.400000 1.000000
vt 0.500000 1.000000
vt 0.600000 1.000000
vt 0.700000 1.000000
vt 0.800000 1.000000
vt 0.900000 1.000000
vt 1.000000 1.000000
vt 0.000000 0.000000
vt 0.100000 0.000000
vt 0.100000 0.050000
vt 0.000000 0.050000
vt 0.200000 0.000000
vt 0.200000 0.050000
vt 0.300000 0.000000
vt 0.300000 0.050000
vt 0.400000 0.000000
vt 0.400000 0.050000
vt 0.500000 0.000000
vt 0.500000 0.050000
vt 0.600000 0.000000
vt 0.600000 0.050000
vt 0.700000 0.000000
vt 0.700000 0.050000
vt 0.800000 0.000000
vt 0.800000 0.050000
vt 0.900000 0.000000
vt 0.900000 0.050000
vt 1.000000 0.000000
vt 1.000000 0.050000
vt 0.100000 0.100000
vt 0.000000 0.100000
vt 0.200000 0.100000
vt 0.300000 0.100000
vt 0.400000 0.100000
vt 0.500000 0.100000
vt 0.600000 0.100000
vt 0.700000 0.100000
vt 0.800000 0.100000
vt 0.900000 0.100000
vt 1.000000 0.100000
vt 0.100000 0.150000
vt 0.000000 0.150000
vt 0.200000 0.150000
vt 0.300000 0.150000
vt 0.400000 0.150000
vt 0.500000 0.150000
vt 0.600000 0.150000
vt 0.700000 0.150000
vt 0.800000 0.150000
vt 0.900000 0.150000
vt 1.000000 0.150000
vt 0.100000 0.200000
vt 0.000000 0.200000
vt 0.200000 0.200000
vt 0.300000 0.200000
vt 0.400000 0.200000
vt 0.500000 0.200000
vt 0.600000 0.200000
vt 0.700000 0.200000
vt 0.800000 0.200000
vt 0.900000 0.200000
vt 1.000000 0.200000
vt 0.100000 0.250000
vt 0.000000 0.250000
vt 0.200000 0.250000
vt 0.300000 0.250000
vt 0.400000 0.250000
vt 0.500000 0.250000
vt 0.600000 0.250000
vt 0.700000 0.250000
vt 0.800000 0.250000
vt 0.900000 0.250000
vt 1.000000 0.250000
vt 0.100000 0.300000
vt 0.000000 0.300000
vt 0.200000 0.300000
vt 0.300000 0.300000
vt 0.400000 0.300000
vt 0.500000 0.300000
vt 0.600000 0.300000
vt 0.700000 0.300000
vt 0.800000 0.300000
vt 0.900000 0.300000
vt 1.000000 0.300000
vt 0.100000 0.350000
vt 0.000000 0.350000
vt 0.200000 0.350000
vt 0.300000 0.350000
vt 0.400000 0.350000
vt 0.500000 0.350000
vt 0.600000 0.350000
vt 0.700000 0.350000
vt 0.800000 0.350000
vt 0.900000 0.350000
vt 1.000000 0.350000
vt 0.100000 0.400000
vt 0.000000 0.400000
vt 0.200000 0.400000
vt 0.300000 0.400000
vt 0.400000 0.400000
vt 0.500000 0.400000
vt 0.600000 0.400000
vt 0.700000 0.400000
vt 0.800000 0.400000
vt 0.900000 0.400000
vt 1.000000 0.400000
vt 0.100000 0.450000
vt 0.000000 0.450000
vt 0.200000 0.450000
vt 0.300000 0.450000
vt 0.400000 0.450000
vt 0.500000 0.450000
vt 0.600000 0.450000
vt 0.700000 0.450000
vt 0.800000 0.450000
vt 0.900000 0.450000
vt 1.000000 0.450000
vt 0.100000 0.500000
vt 0.000000 0.500000
vt 0.200000 0.500000
vt 0.300000 0.500000
vt 0.400000 0.500000
vt 0.500000 0.500000
vt 0.600000 0.500000
vt 0.700000 0.500000
vt 0.800000 0.500000
vt 0.900000 0.500000
vt 1.000000 0.500000
vt 0.100000 0.550000
vt 0.000000 0.550000
vt 0.200000 0.550000
vt 0.300000 0.550000
vt 0.400000 0.550000
vt 0.500000 0.550000
vt 0.600000 0.550000
vt 0.700000 0.550000
vt 0.800000 0.550000
vt 0.900000 0.550000
vt 1.000000 0.550000
vt 0.100000 0.600000
vt 0.000000 0.600000
vt 0.200000 0.600000
vt 0.300000 0.600000
vt 0.400000 0.600000
vt 0.500000 0.600000
vt 0.600000 0.600000
vt 0.700000 0.600000
vt 0.800000 0.600000
vt 0.900000 0.600000
vt 1.000000 0.600000
vt 0.100000 0.650000
vt 0.000000 0.650000
vt 0.200000 0.650000
vt 0.300000 0.650000
vt 0.400000 0.650000
vt 0.500000 0.650000
vt 0.600000 0.650000
vt 0.700000 0.650000
vt 0.800000 0.650000
vt 0.900000 0.650000
vt 1.000000 0.650000
vt 0.100000 0.700000
vt 0.000000 0.700000
vt 0.200000 0.700000
vt 0.300000 0.700000
vt 0.400000 0.700000
vt 0.500000 0.700000
vt 0.600000 0.700000
vt 0.700000 0.700000
vt 0.800000 0.700000
vt 0.900000 0.700000
vt 1.000000 0.700000
vt 0.100000 0.750000
vt 0.000000 0.750000
vt 0.200000 0.750000
vt 0.300000 0.750000
vt 0.400000 0.750000
vt 0.500000 0.750000
vt 0.600000 0.750000
vt 0.700000 0.750000
vt 0.800000 0.750000
vt 0.900000 0.750000
vt 1.000000 0.750000
vt 0.100000 0.800000
vt 0.000000 0.800000
vt 0.200000 0.800000
vt 0.300000 0.800000
vt 0.400000 0.800000
vt 0.500000 0.800000
vt 0.600000 0.800000
vt 0.700000 0.800000
vt 0.800000 0.800000
vt 0.900000 0.800000
vt 1.000000 0.800000
vt 0.100000 0.850000
vt 0.000000 0.850000
vt 0.200000 0.850000
vt 0.300000 0.850000
vt 0.400000 0.850000
vt 0.500000 0.850000
vt 0.600000 0.850000
vt 0.700000 0.850000
vt 0.800000 0.850000
vt 0.900000 0.850000
vt 1.000000 0.850000
vt 0.100000 0.900000
vt 0.000000 0.900000
vt 0.200000 0.900000
vt 0.300000 0.900000
vt 0.400000 0.900000
vt 0.500000 0.900000
vt 0.600000 0.900000
vt 0.700000 0.900000
vt 0.800000 0.900000
vt 0.900000 0.900000
vt 1.000000 0.900000
vt 0.100000 0.950000
vt 0.000000 0.950000
vt 0.200000 0.950000
vt 0.300000 0.950000
vt 0.400000 0.950000
vt 0.500000 0.950000
vt 0.600000 0.950000
vt 0.700000 0.950000
vt 0.800000 0.950000
vt 0.900000 0.950000
vt 1.000000 0.950000
vt 0.100000 1.000000
vt 0.000000 1.000000
vt 0.200000 1.000000
vt 0.300000 1.000000
vt 0.400000 1.000000
vt 0.500000 1.000000
vt 0.600000 1.000000
vt 0.700000 1.000000
vt 0.800000 1.000000
vt 0.900000 1.000000
vt 1.000000 1.000000
vt 0.000000 0.000000
vt 0.100000 0.000000
vt 0.000000 0.050000
vt 0.200000 0.000000
vt 0.300000 0.000000
vt 0.400000 0.000000
vt 0.500000 0.000000
vt 0.600000 0.000000
vt 0.700000 0.000000
vt 0.800000 0.000000
vt 0.900000 0.000000
vt 1.000000 0.000000
vt 1.000000 0.050000
vt 0.000000 0.100000
vt 1.000000 0.100000
vt 0.000000 0.150000
vt 1.000000 0.150000
vt 0.000000 0.200000
vt 1.000000 0.200000
vt 0.000000 0.250000
vt 1.000000 0.250000
vt 0.000000 0.300000
vt 1.000000 0.300000
vt 0.000000 0.350000
vt 1.000000 0.350000
vt 0.000000 0.400000
vt 1.000000 0.400000
vt 0.000000 0.450000
vt 1.000000 0.450000
vt 0.000000 0.500000
vt 1.000000 0.500000
vt 0.000000 0.550000
vt 1.000000 0.550000
vt 0.000000 0.600000
vt 1.000000 0.600000
vt 0.000000 0.650000
vt 1.000000 0.650000
vt 0.000000 0.700000
vt 1.000000 0.700000
vt 0.000000 0.750000
vt 1.000000 0.750000
vt 0.000000 0.800000
vt 1.000000 0.800000
vt 0.000000 0.850000
vt 1.000000 0.850000
vt 0.000000 0.900000
vt 1.000000 0.900000
vt 0.000000 0.950000
vt 1.000000 0.950000
vt 0.100000 1.000000
vt 0.000000 1.000000
vt 0.200000 1.000000
vt 0.300000 1.000000
vt 0.400000 1.000000
vt 0.500000 1.000000
vt 0.600000 1.000000
vt 0.700000 1.000000
vt 0.800000 1.000000
vt 0.900000 1.000000
vt 1.000000 1.000000
vt 0.996622 0.000000
vt 0.996622 0.000000
vt 0.996622 0.000000
vt 0.996622 0.050000
vt 0.996622 0.100000
vt 0.996622 0.150000
vt 0.996622 0.200000
vt 0.996622 0.250000
vt 0.996622 0.300000
vt 0.996622 0.350000
vt 0.996622 0.400000
vt 0.996622 0.450000
vt 0.996622 0.500000
vt 0.996622 0.550000
vt 0.996622 0.600000
vt 0.996622 0.650000
vt 0.996622 0.700000
vt 0.996622 0.750000
vt 0.996622 0.800000
vt 0.996622 0.850000
vt 0.996622 0.900000
vt 0.996622 0.950000
vt 0.996622 1.000000
vt 0.996622 1.000000
vt 0.996622 1.000000
vt 0.996622 0.950000
vt 0.996622 0.900000
vt 0.996622 0.850000
vt 0.996622 0.800000
vt 0.996622 0.750000
vt 0.996622 0.700000
vt 0.996622 0.650000
vt 0.996622 0.600000
vt 0.996622 0.550000
vt 0.996622 0.500000
vt 0.996622 0.450000
vt 0.996622 0.400000
vt 0.996622 0.350000
vt 0.996622 0.300000
vt 0.996622 0.250000
vt 0.996622 0.200000
vt 0.996622 0.150000
vt 0.996622 0.100000
vt 0.996622 0.050000
vt 0.000000 0.001912
vt 0.000000 0.001912
vt 0.100000 0.001912
vt 0.200000 0.001912
vt 0.300000 0.001912
vt 0.400000 0.001912
vt 0.500000 0.001912
vt 0.600000 0.001912
vt 0.700000 0.001912
vt 0.800000 0.001912
vt 0.900000 0.001912
vt 0.996622 0.001912
vt 1.000000 0.001912
vt 1.000000 0.001912
vt 1.000000 0.001912
vt 0.996622 0.001912
vt 0.900000 0.001912
vt 0.800000 0.001912
vt 0.700000 0.001912
vt 0.600000 0.001912
vt 0.500000 0.001912
vt 0.400000 0.001912
vt 0.300000 0.001912
vt 0.200000 0.001912
vt 0.100000 0.001912
vt 0.000000 0.001912
vt 0.003782 0.000000
vt 0.003782 0.000000
vt 0.003782 0.000000
vt 0.003782 0.001912
vt 0.003782 0.050000
vt 0.003782 0.100000
vt 0.003782 0.150000
vt 0.003782 0.200000
vt 0.003782 0.250000
vt 0.003782 0.300000
vt 0.003782 0.350000
vt 0.003782 0.400000
vt 0.003782 0.450000
vt 0.003782 0.500000
vt 0.003782 0.550000
vt 0.003782 0.600000
vt 0.003782 0.650000
vt 0.003782 0.700000
vt 0.003782 0.750000
vt 0.003782 0.800000
vt 0.003782 0.850000
vt 0.003782 0.900000
vt 0.003782 0.950000
vt 0.003782 1.000000
vt 0.003782 1.000000
vt 0.003782 1.000000
vt 0.003782 0.950000
vt 0.003782 0.900000
vt 0.003782 0.850000
vt 0.003782 0.800000
vt 0.003782 0.750000
vt 0.003782 0.700000
vt 0.003782 0.650000
vt 0.003782 0.600000
vt 0.003782 0.550000
vt 0.003782 0.500000
vt 0.003782 0.450000
vt 0.003782 0.400000
vt 0.003782 0.350000
vt 0.003782 0.300000
vt 0.003782 0.250000
vt 0.003782 0.200000
vt 0.003782 0.150000
vt 0.003782 0.100000
vt 0.003782 0.050000
vt 0.003782 0.001912
vt 0.000000 0.998690
vt 0.000000 0.998690
vt 0.003782 0.998690
vt 0.100000 0.998690
vt 0.200000 0.998690
vt 0.300000 0.998690
vt 0.400000 0.998690
vt 0.500000 0.998690
vt 0.600000 0.998690
vt 0.700000 0.998690
vt 0.800000 0.998690
vt 0.900000 0.998690
vt 0.996622 0.998690
vt 1.000000 0.998690
vt 1.000000 0.998690
vt 1.000000 0.998690
vt 0.996622 0.998690
vt 0.900000 0.998690
vt 0.800000 0.998690
vt 0.700000 0.998690
vt 0.600000 0.998690
vt 0.500000 0.998690
vt 0.400000 0.998690
vt 0.300000 0.998690
vt 0.200000 0.998690
vt 0.100000 0.998690
vt 0.003782 0.998690
vt 0.000000 0.998690
vn -0.069345 -0.994278 0.081256
vn -0.059781 -0.996393 0.060225
vn -0.085778 -0.993776 0.071074
vn -0.097850 -0.990780 0.093706
vn -0.079313 -0.989531 0.120575
vn -0.104194 -0.985814 0.131584
vn -0.068498 -0.985676 0.154112
vn -0.086440 -0.982902 0.162580
vn -0.039532 -0.983494 0.176567
vn -0.048886 -0.981952 0.182704
vn -0.000000 -0.982835 0.184487
vn 0.000000 -0.981843 0.189695
vn 0.039532 -0.983494 0.176567
vn 0.048886 -0.981952 0.182704
vn 0.068498 -0.985676 0.154112
vn 0.086440 -0.982902 0.162580
vn 0.079313 -0.989531 0.120575
vn 0.104194 -0.985814 0.131584
vn 0.069325 -0.994287 0.081162
vn 0.097842 -0.990788 0.093626
vn 0.059844 -0.997478 0.038158
vn 0.059781 -0.996393 0.060232
vn 0.085756 -0.993778 0.071068
vn 0.085689 -0.995066 0.050003
vn -0.133883 -0.987867 0.078707
vn -0.145337 -0.984770 0.095425
vn -0.144918 -0.981546 0.124763
vn -0.116428 -0.982043 0.148446
vn -0.064933 -0.984411 0.163461
vn 0.000000 -0.985697 0.168530
vn 0.064933 -0.984411 0.163462
vn 0.116428 -0.982043 0.148446
vn 0.144918 -0.981546 0.124763
vn 0.145335 -0.984777 0.095354
vn 0.133851 -0.987871 0.078711
vn 0.133755 -0.989103 0.061513
vn -0.170881 -0.983917 0.052035
vn -0.178850 -0.982048 0.059948
vn -0.172627 -0.982060 0.075884
vn -0.136069 -0.986759 0.088269
vn -0.075068 -0.992612 0.095318
vn 0.000000 -0.995254 0.097314
vn 0.075068 -0.992612 0.095318
vn 0.136069 -0.986759 0.088269
vn 0.172627 -0.982060 0.075884
vn 0.178845 -0.982052 0.059902
vn 0.170868 -0.983918 0.052047
vn 0.170845 -0.984393 0.042215
vn -0.185078 -0.982724 0.000000
vn -0.191048 -0.981581 -0.000000
vn -0.181224 -0.983442 -0.000000
vn -0.139820 -0.990177 0.000000
vn -0.075296 -0.997161 -0.000000
vn 0.000000 -1.000000 -0.000000
vn 0.075296 -0.997161 0.000000
vn 0.139820 -0.990177 -0.000000
vn 0.181224 -0.983442 -0.000000
vn 0.191037 -0.981583 0.000000
vn 0.185078 -0.982724 0.000000
vn 0.185078 -0.982724 0.000000
vn -0.170881 -0.983917 -0.052035
vn -0.178850 -0.982048 -0.059948
vn -0.172627 -0.982060 -0.075884
vn -0.136069 -0.986759 -0.088269
vn -0.075068 -0.992612 -0.095318
vn 0.000000 -0.995254 -0.097314
vn 0.075068 -0.992612 -0.095318
vn 0.136069 -0.986759 -0.088269
vn 0.172627 -0.982060 -0.075884
vn 0.178845 -0.982052 -0.059902
vn 0.170868 -0.983918 -0.052047
vn 0.170845 -0.984393 -0.042215
vn -0.133883 -0.987867 -0.078707
vn -0.145337 -0.984770 -0.095425
vn -0.144918 -0.981546 -0.124763
vn -0.116428 -0.982043 -0.148446
vn -0.064933 -0.984411 -0.163462
vn 0.000000 -0.985696 -0.168530
vn 0.064933 -0.984411 -0.163462
vn 0.116428 -0.982043 -0.148446
vn 0.144918 -0.981546 -0.124763
vn 0.145335 -0.984777 -0.095354
vn 0.133851 -0.987871 -0.078711
vn 0.133754 -0.989104 -0.061513
vn -0.084610 -0.993892 -0.070851
vn -0.096820 -0.990893 -0.093583
vn -0.103275 -0.985920 -0.131514
vn -0.085729 -0.982975 -0.162516
vn -0.048493 -0.981986 -0.182622
vn -0.000000 -0.981861 -0.189602
vn 0.048493 -0.981987 -0.182622
vn 0.085729 -0.982975 -0.162516
vn 0.103275 -0.985920 -0.131514
vn 0.096813 -0.990901 -0.093503
vn 0.084588 -0.993894 -0.070844
vn 0.084514 -0.995180 -0.049751
vn -0.037056 -0.998659 -0.036158
vn -0.045398 -0.997471 -0.054689
vn -0.056593 -0.994279 -0.090591
vn -0.051882 -0.991249 -0.121382
vn -0.030686 -0.989529 -0.141032
vn 0.000000 -0.989018 -0.147798
vn 0.030686 -0.989529 -0.141032
vn 0.051882 -0.991249 -0.121382
vn 0.056593 -0.994279 -0.090591
vn 0.045383 -0.997475 -0.054619
vn 0.037055 -0.998659 -0.036160
vn 0.037065 -0.999119 -0.019664
vn -0.011494 -0.999929 -0.002986
vn -0.017104 -0.999831 -0.006693
vn -0.027517 -0.999518 -0.014348
vn -0.030328 -0.999289 -0.022405
vn -0.019473 -0.999409 -0.028338
vn 0.000000 -0.999534 -0.030514
vn 0.019473 -0.999409 -0.028338
vn 0.030328 -0.999289 -0.022405
vn 0.027517 -0.999518 -0.014348
vn 0.017093 -0.999832 -0.006680
vn 0.011494 -0.999930 -0.002986
vn 0.011494 -0.999934 -0.000419
vn -0.022173 -0.999523 0.021476
vn -0.028060 -0.999036 0.033758
vn -0.037018 -0.997694 0.056880
vn -0.035933 -0.996414 0.076604
vn -0.021825 -0.995805 0.088858
vn -0.000000 -0.995665 0.093010
vn 0.021825 -0.995805 0.088858
vn 0.035933 -0.996414 0.076604
vn 0.037018 -0.997694 0.056880
vn 0.028049 -0.999038 0.033712
vn 0.022173 -0.999523 0.021477
vn 0.022176 -0.999694 0.010995
vn -0.057258 -0.997152 0.049085
vn -0.065690 -0.995601 0.066815
vn -0.072444 -0.992476 0.098708
vn -0.061384 -0.990176 0.125631
vn -0.035029 -0.989073 0.143202
vn -0.000000 -0.988791 0.149306
vn 0.035029 -0.989073 0.143202
vn 0.061384 -0.990176 0.125631
vn 0.072444 -0.992476 0.098708
vn 0.065679 -0.995606 0.066749
vn 0.057252 -0.997152 0.049084
vn 0.057235 -0.997820 0.032850
vn -0.098468 -0.993112 0.063499
vn -0.107842 -0.990964 0.079754
vn -0.109688 -0.988147 0.107395
vn -0.088920 -0.987541 0.129828
vn -0.049707 -0.988297 0.144216
vn -0.000000 -0.988813 0.149159
vn 0.049707 -0.988297 0.144216
vn 0.088920 -0.987541 0.129828
vn 0.109688 -0.988147 0.107395
vn 0.107837 -0.990969 0.079691
vn 0.098449 -0.993114 0.063497
vn 0.098384 -0.994001 0.047784
vn -0.133551 -0.989694 0.051666
vn -0.140911 -0.988123 0.061294
vn -0.137642 -0.987325 0.079019
vn -0.109146 -0.989662 0.093044
vn -0.060354 -0.992991 0.101619
vn 0.000000 -0.994534 0.104409
vn 0.060354 -0.992991 0.101619
vn 0.109146 -0.989662 0.093044
vn 0.137642 -0.987325 0.079019
vn 0.140906 -0.988127 0.061248
vn 0.133538 -0.989696 0.051672
vn 0.133501 -0.990193 0.041175
vn -0.152534 -0.988172 0.015816
vn -0.157835 -0.987294 0.018380
vn -0.150867 -0.988278 0.023351
vn -0.117295 -0.992726 0.027130
vn -0.063756 -0.997538 0.029217
vn 0.000000 -0.999556 0.029801
vn 0.063756 -0.997538 0.029217
vn 0.117295 -0.992727 0.027130
vn 0.150867 -0.988278 0.023351
vn 0.157826 -0.987296 0.018366
vn 0.152533 -0.988172 0.015819
vn 0.152530 -0.988216 0.012810
vn -0.149235 -0.988409 -0.027859
vn -0.154995 -0.987384 -0.032385
vn -0.148841 -0.988008 -0.041077
vn -0.116344 -0.992063 -0.047702
vn -0.063602 -0.996649 -0.051427
vn 0.000000 -0.998621 -0.052501
vn 0.063602 -0.996649 -0.051427
vn 0.116344 -0.992063 -0.047702
vn 0.148841 -0.988008 -0.041077
vn 0.154987 -0.987386 -0.032360
vn 0.149232 -0.988410 -0.027864
vn 0.149224 -0.988546 -0.022545
vn -0.124862 -0.990473 -0.058079
vn -0.133047 -0.988656 -0.069702
vn -0.131207 -0.987208 -0.090578
vn -0.104612 -0.988714 -0.107246
vn -0.058026 -0.991360 -0.117639
vn -0.000000 -0.992640 -0.121102
vn 0.058026 -0.991360 -0.117639
vn 0.104612 -0.988714 -0.107246
vn 0.131207 -0.987208 -0.090578
vn 0.133042 -0.988660 -0.069650
vn 0.124846 -0.990475 -0.058084
vn 0.124795 -0.991122 -0.045854
vn -0.086804 -0.994299 -0.061926
vn -0.096460 -0.992161 -0.079450
vn -0.099992 -0.988991 -0.109078
vn -0.081809 -0.987699 -0.133256
vn -0.045934 -0.987792 -0.148856
vn 0.000000 -0.988033 -0.154242
vn 0.045934 -0.987792 -0.148856
vn 0.081809 -0.987699 -0.133256
vn 0.099992 -0.988991 -0.109078
vn 0.096453 -0.992167 -0.079385
vn 0.086787 -0.994300 -0.061923
vn 0.086728 -0.995200 -0.045336
vn -0.045877 -0.998112 -0.040839
vn -0.053587 -0.996892 -0.057750
vn -0.061267 -0.994106 -0.089438
vn -0.053065 -0.991734 -0.116822
vn -0.030601 -0.990404 -0.134772
vn 0.000000 -0.990007 -0.141016
vn 0.030601 -0.990404 -0.134772
vn 0.053065 -0.991734 -0.116822
vn 0.061267 -0.994106 -0.089438
vn 0.053575 -0.996896 -0.057687
vn 0.045874 -0.998112 -0.040839
vn 0.045872 -0.998619 -0.025594
vn -0.015267 -0.999778 -0.014493
vn -0.019827 -0.999499 -0.024652
vn -0.026386 -0.998624 -0.045330
vn -0.025626 -0.997479 -0.066180
vn -0.015576 -0.996579 -0.081165
vn 0.000000 -0.996244 -0.086592
vn 0.015577 -0.996579 -0.081165
vn 0.025626 -0.997479 -0.066180
vn 0.026386 -0.998624 -0.045330
vn 0.019818 -0.999501 -0.024615
vn 0.015267 -0.999778 -0.014493
vn 0.015269 -0.999862 -0.006506
vn -0.006682 -0.999939 -0.008820
vn -0.004342 -0.999983 -0.003871
vn -0.000114 -0.999992 -0.003871
vn -0.000534 -0.999961 -0.008820
vn -0.011440 -0.999726 -0.020425
vn -0.002550 -0.999788 -0.020428
vn -0.013037 -0.999328 -0.034262
vn -0.004252 -0.999404 -0.034267
vn -0.008380 -0.998935 -0.045378
vn -0.002983 -0.998965 -0.045380
vn 0.000000 -0.998769 -0.049614
vn 0.000000 -0.998768 -0.049614
vn 0.008380 -0.998935 -0.045378
vn 0.002983 -0.998965 -0.045380
vn 0.013037 -0.999328 -0.034262
vn 0.004252 -0.999404 -0.034267
vn 0.011440 -0.999726 -0.020425
vn 0.002550 -0.999788 -0.020428
vn 0.006677 -0.999939 -0.008803
vn 0.000533 -0.999961 -0.008804
vn 0.004342 -0.999990 -0.000665
vn 0.004342 -0.999983 -0.003871
vn 0.000114 -0.999992 -0.003871
vn 0.000114 -1.000000 -0.000665
vn 0.085778 0.993776 -0.071074
vn 0.059781 0.996393 -0.060225
vn 0.069345 0.994278 -0.081256
vn 0.097850 0.990780 -0.093706
vn 0.079313 0.989531 -0.120575
vn 0.104194 0.985814 -0.131584
vn 0.068498 0.985676 -0.154112
vn 0.086440 0.982902 -0.162580
vn 0.039532 0.983495 -0.176567
vn 0.048886 0.981952 -0.182704
vn 0.000000 0.982835 -0.184487
vn -0.000000 0.981843 -0.189695
vn -0.039532 0.983495 -0.176567
vn -0.048886 0.981952 -0.182704
vn -0.068498 0.985676 -0.154112
vn -0.086440 0.982902 -0.162580
vn -0.079313 0.989531 -0.120575
vn -0.104194 0.985814 -0.131584
vn -0.069325 0.994287 -0.081162
vn -0.097843 0.990788 -0.093626
vn -0.085756 0.993778 -0.071068
vn -0.059781 0.996393 -0.060232
vn -0.059842 0.997478 -0.038158
vn -0.085688 0.995066 -0.050003
vn 0.133883 0.987867 -0.078707
vn 0.145337 0.984770 -0.095425
vn 0.144918 0.981546 -0.124763
vn 0.116427 0.982043 -0.148446
vn 0.064933 0.984411 -0.163462
vn -0.000000 0.985697 -0.168530
vn -0.064933 0.984411 -0.163462
vn -0.116428 0.982043 -0.148446
vn -0.144918 0.981546 -0.124763
vn -0.145335 0.984777 -0.095354
vn -0.133851 0.987871 -0.078711
vn -0.133756 0.989103 -0.061513
vn 0.170881 0.983917 -0.052035
vn 0.178851 0.982048 -0.059948
vn 0.172627 0.982060 -0.075884
vn 0.136069 0.986759 -0.088269
vn 0.075068 0.992612 -0.095318
vn -0.000000 0.995254 -0.097314
vn -0.075068 0.992612 -0.095318
vn -0.136069 0.986759 -0.088269
vn -0.172627 0.982060 -0.075884
vn -0.178845 0.982052 -0.059902
vn -0.170868 0.983918 -0.052047
vn -0.170844 0.984393 -0.042215
vn 0.185078 0.982724 0.000000
vn 0.191048 0.981581 0.000000
vn 0.181224 0.983442 -0.000000
vn 0.139820 0.990177 -0.000000
vn 0.075296 0.997161 -0.000000
vn 0.000000 1.000000 0.000000
vn -0.075296 0.997161 0.000000
vn -0.139820 0.990177 0.000000
vn -0.181224 0.983442 0.000000
vn -0.191037 0.981583 -0.000000
vn -0.185078 0.982724 -0.000000
vn -0.185078 0.982724 0.000000
vn 0.170881 0.983917 0.052035
vn 0.178850 0.982048 0.059948
vn 0.172627 0.982060 0.075884
vn 0.136069 0.986759 0.088269
vn 0.075068 0.992612 0.095318
vn -0.000000 0.995254 0.097314
vn -0.075068 0.992612 0.095318
vn -0.136069 0.986759 0.088269
vn -0.172627 0.982060 0.075884
vn -0.178845 0.982052 0.059902
vn -0.170868 0.983918 0.052047
vn -0.170845 0.984393 0.042215
vn 0.133883 0.987867 0.078707
vn 0.145337 0.984770 0.095425
vn 0.144918 0.981546 0.124763
vn 0.116428 0.982043 0.148446
vn 0.064933 0.984411 0.163462
vn -0.000000 0.985697 0.168530
vn -0.064933 0.984411 0.163462
vn -0.116428 0.982043 0.148446
vn -0.144918 0.981546 0.124763
vn -0.145335 0.984777 0.095354
vn -0.133851 0.987871 0.078711
vn -0.133754 0.989104 0.061513
vn 0.084610 0.993892 0.070851
vn 0.096820 0.990893 0.093583
vn 0.103275 0.985920 0.131514
vn 0.085729 0.982975 0.162516
vn 0.048493 0.981986 0.182622
vn 0.000000 0.981861 0.189602
vn -0.048493 0.981987 0.182622
vn -0.085729 0.982975 0.162516
vn -0.103275 0.985920 0.131514
vn -0.096813 0.990901 0.093503
vn -0.084588 0.993894 0.070844
vn -0.084514 0.995180 0.049751
vn 0.037056 0.998659 0.036158
vn 0.045398 0.997471 0.054689
vn 0.056593 0.994279 0.090591
vn 0.051882 0.991249 0.121382
vn 0.030686 0.989529 0.141032
vn 0.000000 0.989018 0.147798
vn -0.030686 0.989529 0.141032
vn -0.051882 0.991249 0.121382
vn -0.056593 0.994279 0.090591
vn -0.045383 0.997475 0.054619
vn -0.037055 0.998659 0.036160
vn -0.037065 0.999119 0.019664
vn 0.011494 0.999929 0.002986
vn 0.017104 0.999831 0.006693
vn 0.027517 0.999518 0.014348
vn 0.030328 0.999289 0.022405
vn 0.019473 0.999409 0.028338
vn 0.000000 0.999534 0.030514
vn -0.019473 0.999409 0.028338
vn -0.030328 0.999289 0.022405
vn -0.027517 0.999518 0.014348
vn -0.017093 0.999832 0.006680
vn -0.011494 0.999930 0.002986
vn -0.011494 0.999934 0.000419
vn 0.022173 0.999523 -0.021476
vn 0.028060 0.999036 -0.033758
vn 0.037018 0.997694 -0.056880
vn 0.035933 0.996414 -0.076604
vn 0.021825 0.995805 -0.088858
vn 0.000000 0.995665 -0.093010
vn -0.021825 0.995805 -0.088858
vn -0.035933 0.996414 -0.076604
vn -0.037018 0.997694 -0.056880
vn -0.028049 0.999038 -0.033712
vn -0.022173 0.999523 -0.021477
vn -0.022176 0.999694 -0.010995
vn 0.057258 0.997152 -0.049085
vn 0.065690 0.995601 -0.066815
vn 0.072444 0.992476 -0.098708
vn 0.061384 0.990176 -0.125631
vn 0.035029 0.989073 -0.143202
vn -0.000000 0.988791 -0.149306
vn -0.035029 0.989073 -0.143202
vn -0.061384 0.990176 -0.125631
vn -0.072444 0.992476 -0.098708
vn -0.065679 0.995606 -0.066749
vn -0.057252 0.997152 -0.049084
vn -0.057235 0.997820 -0.032850
vn 0.098468 0.993112 -0.063499
vn 0.107842 0.990964 -0.079754
vn 0.109688 0.988147 -0.107395
vn 0.088920 0.987541 -0.129828
vn 0.049707 0.988297 -0.144216
vn 0.000000 0.988813 -0.149159
vn -0.049707 0.988297 -0.144216
vn -0.088920 0.987541 -0.129828
vn -0.109688 0.988147 -0.107395
vn -0.107837 0.990969 -0.079691
vn -0.098449 0.993114 -0.063497
vn -0.098383 0.994001 -0.047784
vn 0.133551 0.989694 -0.051666
vn 0.140911 0.988123 -0.061294
vn 0.137642 0.987325 -0.079019
vn 0.109146 0.989662 -0.093044
vn 0.060354 0.992991 -0.101619
vn 0.000000 0.994534 -0.104409
vn -0.060354 0.992991 -0.101619
vn -0.109146 0.989662 -0.093044
vn -0.137642 0.987325 -0.079019
vn -0.140906 0.988127 -0.061248
vn -0.133538 0.989696 -0.051672
vn -0.133501 0.990193 -0.041175
vn 0.152534 0.988172 -0.015816
vn 0.157835 0.987294 -0.018380
vn 0.150867 0.988278 -0.023351
vn 0.117295 0.992727 -0.027130
vn 0.063756 0.997538 -0.029217
vn 0.000000 0.999556 -0.029801
vn -0.063756 0.997538 -0.029217
vn -0.117295 0.992727 -0.027130
vn -0.150867 0.988278 -0.023351
vn -0.157826 0.987296 -0.018366
vn -0.152532 0.988172 -0.015819
vn -0.152530 0.988216 -0.012810
vn 0.149235 0.988409 0.027859
vn 0.154996 0.987384 0.032385
vn 0.148841 0.988008 0.041077
vn 0.116344 0.992063 0.047702
vn 0.063602 0.996649 0.051427
vn -0.000000 0.998621 0.052501
vn -0.063602 0.996649 0.051427
vn -0.116344 0.992063 0.047702
vn -0.148841 0.988008 0.041077
vn -0.154988 0.987386 0.032360
vn -0.149232 0.988409 0.027864
vn -0.149223 0.988546 0.022545
vn 0.124862 0.990473 0.058079
vn 0.133047 0.988656 0.069702
vn 0.131207 0.987208 0.090578
vn 0.104612 0.988714 0.107246
vn 0.058026 0.991360 0.117639
vn 0.000000 0.992640 0.121102
vn -0.058026 0.991360 0.117639
vn -0.104612 0.988714 0.107246
vn -0.131207 0.987208 0.090578
vn -0.133042 0.988660 0.069650
vn -0.124846 0.990474 0.058084
vn -0.124795 0.991122 0.045854
vn 0.086804 0.994299 0.061926
vn 0.096460 0.992161 0.079450
vn 0.099992 0.988991 0.109078
vn 0.081809 0.987699 0.133257
vn 0.045934 0.987791 0.148856
vn -0.000000 0.988033 0.154242
vn -0.045934 0.987791 0.148856
vn -0.081809 0.987699 0.133257
vn -0.099992 0.988991 0.109078
vn -0.096453 0.992167 0.079385
vn -0.086787 0.994300 0.061923
vn -0.086728 0.995200 0.045336
vn 0.045877 0.998112 0.040839
vn 0.053587 0.996892 0.057750
vn 0.061267 0.994106 0.089438
vn 0.053065 0.991734 0.116822
vn 0.030601 0.990404 0.134772
vn 0.000000 0.990007 0.141016
vn -0.030601 0.990404 0.134772
vn -0.053065 0.991734 0.116822
vn -0.061267 0.994106 0.089438
vn -0.053575 0.996896 0.057687
vn -0.045874 0.998112 0.040839
vn -0.045872 0.998619 0.025594
vn 0.015267 0.999778 0.014493
vn 0.019827 0.999499 0.024652
vn 0.026386 0.998624 0.045330
vn 0.025626 0.997479 0.066180
vn 0.015576 0.996579 0.081165
vn -0.000000 0.996244 0.086592
vn -0.015576 0.996579 0.081165
vn -0.025626 0.997479 0.066180
vn -0.026386 0.998624 0.045330
vn -0.019818 0.999501 0.024615
vn -0.015267 0.999778 0.014493
vn -0.015269 0.999862 0.006506
vn 0.000114 0.999992 0.003871
vn 0.004342 0.999983 0.003871
vn 0.006682 0.999939 0.008820
vn 0.000534 0.999961 0.008820
vn 0.011440 0.999726 0.020425
vn 0.002550 0.999788 0.020428
vn 0.013037 0.999328 0.034262
vn 0.004252 0.999404 0.034267
vn 0.008380 0.998935 0.045378
vn 0.002983 0.998965 0.045380
vn 0.000000 0.998769 0.049614
vn 0.000000 0.998769 0.049614
vn -0.008380 0.998935 0.045378
vn -0.002983 0.998965 0.045380
vn -0.013037 0.999328 0.034262
vn -0.004252 0.999404 0.034267
vn -0.011440 0.999726 0.020425
vn -0.002550 0.999788 0.020428
vn -0.006677 0.999939 0.008803
vn -0.000533 0.999961 0.008804
vn -0.000114 0.999992 0.003871
vn -0.004342 0.999983 0.003871
vn -0.004342 0.999990 0.000665
vn -0.000114 1.000000 0.000665
vn 0.000000 0.000000 1.000000
vn 0.000000 0.000000 1.000000
vn -0.000000 0.000000 1.000000
vn -0.000000 0.000000 1.000000
vn -1.000000 0.000000 0.000000
vn -1.000000 0.000000 0.000000
vn -1.000000 0.000000 0.000000
vn -1.000000 0.000000 0.000000
vn 0.000000 0.000000 1.000000
vn 0.000000 0.000000 1.000000
vn 0.000000 0.000000 1.000000
vn 0.000000 0.000000 1.000000
vn 0.000000 0.000000 1.000000
vn 0.000000 0.000000 1.000000
vn 0.000000 0.000000 1.000000
vn 0.000000 0.000000 1.000000
vn 0.000000 0.000000 1.000000
vn 0.000000 0.000000 1.000000
vn 0.000000 0.000000 1.000000
vn 0.000000 0.000000 1.000000
vn 0.000000 0.000000 1.000000
vn 0.000000 0.000000 1.000000
vn 0.000000 0.000000 1.000000
vn 0.000000 0.000000 1.000000
vn 0.000000 0.000000 1.000000
vn 0.000000 0.000000 1.000000
vn -0.000008 0.000000 1.000000
vn -0.000008 0.000000 1.000000
vn 1.000000 0.000000 0.000000
vn 1.000000 0.000000 0.000000
vn 1.000000 0.000000 0.000000
vn 1.000000 0.000000 0.000000
vn -1.000000 0.000000 0.000000
vn -1.000000 0.000000 0.000000
vn 1.000000 0.000000 0.000000
vn 1.000000 0.000000 0.000000
vn -1.000000 0.000000 0.000000
vn -1.000000 0.000000 0.000000
vn 1.000000 0.000000 0.000000
vn 1.000000 0.000000 0.000000
vn -1.000000 0.000000 0.000000
vn -1.000000 0.000000 0.000000
vn 1.000000 0.000000 0.000000
vn 1.000000 0.000000 0.000000
vn -1.000000 0.000000 0.000000
vn -1.000000 0.000000 0.000000
vn 1.000000 0.000000 0.000000
vn 1.000000 0.000000 0.000000
vn -1.000000 0.000000 0.000000
vn -1.000000 0.000000 0.000000
vn 1.000000 0.000000 0.000000
vn 1.000000 0.000000 0.000000
vn -1.000000 0.000000 0.000000
vn -1.000000 0.000000 0.000000
vn 1.000000 0.000000 0.000000
vn 1.000000 0.000000 0.000000
vn -1.000000 0.000000 0.000000
vn -1.000000 0.000000 0.000000
vn 1.000000 0.000000 0.000000
vn 1.000000 0.000000 0.000000
vn -1.000000 0.000000 0.000000
vn -1.000000 0.000000 0.000000
vn 1.000000 0.000000 0.000000
vn 1.000000 0.000000 0.000000
vn -1.000000 0.000000 0.000000
vn -1.000000 0.000000 0.000000
vn 1.000000 0.000000 0.000000
vn 1.000000 0.000000 0.000000
vn -1.000000 0.000000 0.000000
vn -1.000000 0.000000 0.000000
vn 1.000000 0.000000 0.000000
vn 1.000000 0.000000 0.000000
vn -1.000000 0.000000 0.000000
vn -1.000000 0.000000 0.000000
vn 1.000000 0.000000 0.000000
vn 1.000000 0.000000 0.000000
vn -1.000000 0.000000 0.000000
vn -1.000000 0.000000 0.000000
vn 1.000000 0.000000 0.000000
vn 1.000000 0.000000 0.000000
vn -1.000000 0.000000 0.000000
vn -1.000000 0.000000 0.000000
vn 1.000000 0.000000 0.000000
vn 1.000000 0.000000 0.000000
vn -1.000000 0.000000 0.000000
vn -1.000000 0.000000 0.000000
vn 1.000000 0.000000 0.000000
vn 1.000000 0.000000 0.000000
vn -1.000000 0.000000 0.000000
vn -1.000000 0.000000 0.000000
vn 1.000000 0.000000 0.000000
vn 1.000000 0.000000 0.000000
vn -1.000000 0.000000 0.000000
vn -1.000000 0.000000 0.000000
vn 1.000000 0.000000 0.000000
vn 1.000000 0.000000 0.000000
vn -1.000000 0.000000 0.000000
vn -1.000000 0.000000 0.000000
vn 1.000000 0.000000 0.000000
vn 1.000000 0.000000 0.000000
vn -1.000000 0.000000 0.000000
vn -1.000000 0.000000 0.000000
vn 1.000000 0.000000 0.000000
vn 1.000000 0.000000 0.000000
vn 0.000000 0.000000 -1.000000
vn 0.000000 0.000000 -1.000000
vn 0.000000 0.000000 -1.000000
vn 0.000000 0.000000 -1.000000
vn -1.000000 0.000000 0.000000
vn -1.000000 0.000000 0.000000
vn -1.000000 0.000000 0.000000
vn -1.000000 0.000000 0.000000
vn 0.000000 0.000000 -1.000000
vn 0.000000 0.000000 -1.000000
vn 0.000000 0.000000 -1.000000
vn 0.000000 0.000000 -1.000000
vn 0.000000 0.000000 -1.000000
vn 0.000000 0.000000 -1.000000
vn 0.000000 0.000000 -1.000000
vn 0.000000 0.000000 -1.000000
vn 0.000000 0.000000 -1.000000
vn 0.000000 0.000000 -1.000000
vn 0.000000 0.000000 -1.000000
vn 0.000000 0.000000 -1.000000
vn 0.000000 0.000000 -1.000000
vn 0.000000 0.000000 -1.000000
vn 0.000000 0.000000 -1.000000
vn 0.000000 0.000000 -1.000000
vn 1.000000 0.000000 0.000000
vn 1.000000 0.000000 0.000000
vn 1.000000 0.000000 0.000000
vn 1.000000 0.000000 0.000000
vn 0.000000 0.000000 -1.000000
vn 0.000000 0.000000 -1.000000
vn 0.000000 0.000000 -1.000000
vn 0.000000 0.000000 -1.000000
vn 0.031024 0.997698 -0.060303
vn 0.041579 0.995820 -0.081325
vn 0.054922 0.991174 -0.120659
vn 0.050258 0.986761 -0.154194
vn 0.029759 0.983833 -0.176600
vn 0.000000 0.982835 -0.184488
vn -0.029759 0.983833 -0.176600
vn -0.050258 0.986761 -0.154194
vn -0.054922 0.991174 -0.120659
vn -0.041556 0.995829 -0.081230
vn -0.031024 0.997697 -0.060310
vn -0.031058 0.998787 -0.038208
vn 1.000000 0.000000 0.000000
vn 1.000000 0.000000 0.000000
vn 0.031024 -0.997697 0.060310
vn 0.031058 -0.998787 0.038208
vn 0.041556 -0.995829 0.081231
vn 0.054922 -0.991174 0.120659
vn 0.050258 -0.986761 0.154194
vn 0.029759 -0.983833 0.176600
vn -0.000000 -0.982835 0.184488
vn -0.029759 -0.983833 0.176600
vn -0.050258 -0.986761 0.154195
vn -0.054922 -0.991174 0.120659
vn -0.041579 -0.995820 0.081325
vn -0.031024 -0.997698 0.060303
vn -1.000000 0.000000 0.000000
vn -1.000000 0.000000 0.000000
vn 0.000011 0.000000 1.000000
vn 0.000011 0.000000 1.000000
vn -0.031058 -0.998784 0.038301
vn -0.059841 -0.997475 0.038251
vn -0.085686 -0.995062 0.050091
vn -0.133753 -0.989099 0.061585
vn -0.170843 -0.984392 0.042256
vn -0.185078 -0.982724 -0.000000
vn -0.170844 -0.984392 -0.042256
vn -0.133754 -0.989099 -0.061585
vn -0.084514 -0.995175 -0.049839
vn -0.037064 -0.999118 -0.019733
vn -0.011494 -0.999934 -0.000430
vn -0.022176 -0.999693 0.011039
vn -0.057235 -0.997818 0.032918
vn -0.098383 -0.993998 0.047850
vn -0.133501 -0.990191 0.041219
vn -0.152530 -0.988216 0.012823
vn -0.149223 -0.988546 -0.022567
vn -0.124794 -0.991120 -0.045905
vn -0.086727 -0.995197 -0.045405
vn -0.045872 -0.998618 -0.025658
vn -0.015268 -0.999862 -0.006540
vn -0.004342 -0.999990 -0.000679
vn -0.000114 -1.000000 -0.000678
vn 0.000000 0.000000 -1.000000
vn 0.000000 0.000000 -1.000000
vn 0.004342 0.999990 0.000679
vn 0.000114 1.000000 0.000679
vn 0.045872 0.998618 0.025658
vn 0.015268 0.999862 0.006540
vn 0.086727 0.995197 0.045405
vn 0.124794 0.991120 0.045905
vn 0.149223 0.988546 0.022567
vn 0.152530 0.988216 -0.012823
vn 0.133501 0.990191 -0.041219
vn 0.098383 0.993998 -0.047850
vn 0.057235 0.997818 -0.032918
vn 0.022176 0.999693 -0.011039
vn 0.011494 0.999934 0.000430
vn 0.037064 0.999118 0.019733
vn 0.084514 0.995175 0.049839
vn 0.133754 0.989099 0.061585
vn 0.170844 0.984392 0.042256
vn 0.185078 0.982724 0.000000
vn 0.170843 0.984392 -0.042256
vn 0.133752 0.989099 -0.061585
vn 0.085686 0.995062 -0.050091
vn 0.059842 0.997475 -0.038251
vn 0.031057 0.998783 -0.038301
g pPlane1
f 575/655/113 579/660/114 580/661/115 282/77/116
f 574/654/117 575/655/113 282/77/116 285/78/118
f 573/653/119 574/654/117 285/78/118 287/79/120
f 572/652/121 573/653/119 287/79/120 289/80/122
f 571/651/123 572/652/121 289/80/122 291/81/124
f 570/650/125 571/651/123 291/81/124 293/82/126
f 569/649/127 570/650/125 293/82/126 295/83/128
f 568/648/129 569/649/127 295/83/128 297/84/130
f 567/647/131 568/648/129 297/84/130 299/85/132
f 565/645/133 566/646/134 513/590/135 301/539/136
f 580/661/115 581/662/137 302/88/138 282/77/116
f 282/77/116 302/88/138 304/89/139 285/78/118
f 285/78/118 304/89/139 305/90/140 287/79/120
f 287/79/120 305/90/140 306/91/141 289/80/122
f 289/80/122 306/91/141 307/92/142 291/81/124
f 291/81/124 307/92/142 308/93/143 293/82/126
f 293/82/126 308/93/143 309/94/144 295/83/128
f 295/83/128 309/94/144 310/95/145 297/84/130
f 297/84/130 310/95/145 311/96/146 299/85/132
f 513/590/135 514/591/147 312/541/148 301/539/136
f 581/662/137 582/663/149 313/99/150 302/88/138
f 302/88/138 313/99/150 315/100/151 304/89/139
f 304/89/139 315/100/151 316/101/152 305/90/140
f 305/90/140 316/101/152 317/102/153 306/91/141
f 306/91/141 317/102/153 318/103/154 307/92/142
f 307/92/142 318/103/154 319/104/155 308/93/143
f 308/93/143 319/104/155 320/105/156 309/94/144
f 309/94/144 320/105/156 321/106/157 310/95/145
f 310/95/145 321/106/157 322/107/158 311/96/146
f 514/591/147 515/592/159 323/543/160 312/541/148
f 582/663/149 583/664/161 324/110/162 313/99/150
f 313/99/150 324/110/162 326/111/163 315/100/151
f 315/100/151 326/111/163 327/112/164 316/101/152
f 316/101/152 327/112/164 328/113/165 317/102/153
f 317/102/153 328/113/165 329/114/166 318/103/154
f 318/103/154 329/114/166 330/115/167 319/104/155
f 319/104/155 330/115/167 331/116/168 320/105/156
f 320/105/156 331/116/168 332/117/169 321/106/157
f 321/106/157 332/117/169 333/118/170 322/107/158
f 515/592/159 516/593/171 334/545/172 323/543/160
f 583/664/161 584/665/173 335/121/174 324/110/162
f 324/110/162 335/121/174 337/122/175 326/111/163
f 326/111/163 337/122/175 338/123/176 327/112/164
f 327/112/164 338/123/176 339/124/177 328/113/165
f 328/113/165 339/124/177 340/125/178 329/114/166
f 329/114/166 340/125/178 341/126/179 330/115/167
f 330/115/167 341/126/179 342/127/180 331/116/168
f 331/116/168 342/127/180 343/128/181 332/117/169
f 332/117/169 343/128/181 344/129/182 333/118/170
f 516/593/171 517/594/183 345/547/184 334/545/172
f 584/665/173 585/666/185 346/132/186 335/121/174
f 335/121/174 346/132/186 348/133/187 337/122/175
f 337/122/175 348/133/187 349/134/188 338/123/176
f 338/123/176 349/134/188 350/135/189 339/124/177
f 339/124/177 350/135/189 351/136/190 340/125/178
f 340/125/178 351/136/190 352/137/191 341/126/179
f 341/126/179 352/137/191 353/138/192 342/127/180
f 342/127/180 353/138/192 354/139/193 343/128/181
f 343/128/181 354/139/193 355/140/194 344/129/182
f 517/594/183 518/595/195 356/549/196 345/547/184
f 585/666/185 586/667/197 357/143/198 346/132/186
f 346/132/186 357/143/198 359/144/199 348/133/187
f 348/133/187 359/144/199 360/145/200 349/134/188
f 349/134/188 360/145/200 361/146/201 350/135/189
f 350/135/189 361/146/201 362/147/202 351/136/190
f 351/136/190 362/147/202 363/148/203 352/137/191
f 352/137/191 363/148/203 364/149/204 353/138/192
f 353/138/192 364/149/204 365/150/205 354/139/193
f 354/139/193 365/150/205 366/151/206 355/140/194
f 518/595/195 519/596/207 367/551/208 356/549/196
f 586/667/197 587/668/209 368/154/210 357/143/198
f 357/143/198 368/154/210 370/155/211 359/144/199
f 359/144/199 370/155/211 371/156/212 360/145/200
f 360/145/200 371/156/212 372/157/213 361/146/201
f 361/146/201 372/157/213 373/158/214 362/147/202
f 362/147/202 373/158/214 374/159/215 363/148/203
f 363/148/203 374/159/215 375/160/216 364/149/204
f 364/149/204 375/160/216 376/161/217 365/150/205
f 365/150/205 376/161/217 377/162/218 366/151/206
f 519/596/207 520/597/219 378/553/220 367/551/208
f 587/668/209 588/669/221 379/165/222 368/154/210
f 368/154/210 379/165/222 381/166/223 370/155/211
f 370/155/211 381/166/223 382/167/224 371/156/212
f 371/156/212 382/167/224 383/168/225 372/157/213
f 372/157/213 383/168/225 384/169/226 373/158/214
f 373/158/214 384/169/226 385/170/227 374/159/215
f 374/159/215 385/170/227 386/171/228 375/160/216
f 375/160/216 386/171/228 387/172/229 376/161/217
f 376/161/217 387/172/229 388/173/230 377/162/218
f 520/597/219 521/598/231 389/555/232 378/553/220
f 588/669/221 589/670/233 390/176/234 379/165/222
f 379/165/222 390/176/234 392/177/235 381/166/223
f 381/166/223 392/177/235 393/178/236 382/167/224
f 382/167/224 393/178/236 394/179/237 383/168/225
f 383/168/225 394/179/237 395/180/238 384/169/226
f 384/169/226 395/180/238 396/181/239 385/170/227
f 385/170/227 396/181/239 397/182/240 386/171/228
f 386/171/228 397/182/240 398/183/241 387/172/229
f 387/172/229 398/183/241 399/184/242 388/173/230
f 521/598/231 522/599/243 400/557/244 389/555/232
f 589/670/233 590/671/245 401/187/246 390/176/234
f 390/176/234 401/187/246 403/188/247 392/177/235
f 392/177/235 403/188/247 404/189/248 393/178/236
f 393/178/236 404/189/248 405/190/249 394/179/237
f 394/179/237 405/190/249 406/191/250 395/180/238
f 395/180/238 406/191/250 407/192/251 396/181/239
f 396/181/239 407/192/251 408/193/252 397/182/240
f 397/182/240 408/193/252 409/194/253 398/183/241
f 398/183/241 409/194/253 410/195/254 399/184/242
f 522/599/243 523/600/255 411/559/256 400/557/244
f 590/671/245 591/672/257 412/198/258 401/187/246
f 401/187/246 412/198/258 414/199/259 403/188/247
f 403/188/247 414/199/259 415/200/260 404/189/248
f 404/189/248 415/200/260 416/201/261 405/190/249
f 405/190/249 416/201/261 417/202/262 406/191/250
f 406/191/250 417/202/262 418/203/263 407/192/251
f 407/192/251 418/203/263 419/204/264 408/193/252
f 408/193/252 419/204/264 420/205/265 409/194/253
f 409/194/253 420/205/265 421/206/266 410/195/254
f 523/600/255 524/601/267 422/561/268 411/559/256
f 591/672/257 592/673/269 423/209/270 412/198/258
f 412/198/258 423/209/270 425/210/271 414/199/259
f 414/199/259 425/210/271 426/211/272 415/200/260
f 415/200/260 426/211/272 427/212/273 416/201/261
f 416/201/261 427/212/273 428/213/274 417/202/262
f 417/202/262 428/213/274 429/214/275 418/203/263
f 418/203/263 429/214/275 430/215/276 419/204/264
f 419/204/264 430/215/276 431/216/277 420/205/265
f 420/205/265 431/216/277 432/217/278 421/206/266
f 524/601/267 525/602/279 433/563/280 422/561/268
f 592/673/269 593/674/281 434/220/282 423/209/270
f 423/209/270 434/220/282 436/221/283 425/210/271
f 425/210/271 436/221/283 437/222/284 426/211/272
f 426/211/272 437/222/284 438/223/285 427/212/273
f 427/212/273 438/223/285 439/224/286 428/213/274
f 428/213/274 439/224/286 440/225/287 429/214/275
f 429/214/275 440/225/287 441/226/288 430/215/276
f 430/215/276 441/226/288 442/227/289 431/216/277
f 431/216/277 442/227/289 443/228/290 432/217/278
f 525/602/279 526/603/291 444/565/292 433/563/280
f 593/674/281 594/675/293 445/231/294 434/220/282
f 434/220/282 445/231/294 447/232/295 436/221/283
f 436/221/283 447/232/295 448/233/296 437/222/284
f 437/222/284 448/233/296 449/234/297 438/223/285
f 438/223/285 449/234/297 450/235/298 439/224/286
f 439/224/286 450/235/298 451/236/299 440/225/287
f 440/225/287 451/236/299 452/237/300 441/226/288
f 441/226/288 452/237/300 453/238/301 442/227/289
f 442/227/289 453/238/301 454/239/302 443/228/290
f 526/603/291 527/604/303 455/567/304 444/565/292
f 594/675/293 595/676/305 456/242/306 445/231/294
f 445/231/294 456/242/306 458/243/307 447/232/295
f 447/232/295 458/243/307 459/244/308 448/233/296
f 448/233/296 459/244/308 460/245/309 449/234/297
f 449/234/297 460/245/309 461/246/310 450/235/298
f 450/235/298 461/246/310 462/247/311 451/236/299
f 451/236/299 462/247/311 463/248/312 452/237/300
f 452/237/300 463/248/312 464/249/313 453/238/301
f 453/238/301 464/249/313 465/250/314 454/239/302
f 527/604/303 528/605/315 466/569/316 455/567/304
f 595/676/305 596/677/317 467/253/318 456/242/306
f 456/242/306 467/253/318 469/254/319 458/243/307
f 458/243/307 469/254/319 470/255/320 459/244/308
f 459/244/308 470/255/320 471/256/321 460/245/309
f 460/245/309 471/256/321 472/257/322 461/246/310
f 461/246/310 472/257/322 473/258/323 462/247/311
f 462/247/311 473/258/323 474/259/324 463/248/312
f 463/248/312 474/259/324 475/260/325 464/249/313
f 464/249/313 475/260/325 476/261/326 465/250/314
f 528/605/315 529/606/327 477/571/328 466/569/316
f 596/677/317 597/678/329 478/264/330 467/253/318
f 467/253/318 478/264/330 480/265/331 469/254/319
f 469/254/319 480/265/331 481/266/332 470/255/320
f 470/255/320 481/266/332 482/267/333 471/256/321
f 471/256/321 482/267/333 483/268/334 472/257/322
f 472/257/322 483/268/334 484/269/335 473/258/323
f 473/258/323 484/269/335 485/270/336 474/259/324
f 474/259/324 485/270/336 486/271/337 475/260/325
f 475/260/325 486/271/337 487/272/338 476/261/326
f 529/606/327 530/607/339 488/573/340 477/571/328
f 597/678/329 598/679/341 489/275/342 478/264/330
f 478/264/330 489/275/342 491/276/343 480/265/331
f 480/265/331 491/276/343 492/277/344 481/266/332
f 481/266/332 492/277/344 493/278/345 482/267/333
f 482/267/333 493/278/345 494/279/346 483/268/334
f 483/268/334 494/279/346 495/280/347 484/269/335
f 484/269/335 495/280/347 496/281/348 485/270/336
f 485/270/336 496/281/348 497/282/349 486/271/337
f 486/271/337 497/282/349 498/283/350 487/272/338
f 530/607/339 531/608/351 499/575/352 488/573/340
f 644/728/353 645/729/354 599/680/355 500/576/356
f 643/727/357 644/728/353 500/576/356 502/578/358
f 642/726/359 643/727/357 502/578/358 503/579/360
f 641/725/361 642/726/359 503/579/360 504/580/362
f 640/724/363 641/725/361 504/580/362 505/581/364
f 639/723/365 640/724/363 505/581/364 506/582/366
f 638/722/367 639/723/365 506/582/366 507/583/368
f 637/721/369 638/722/367 507/583/368 508/584/370
f 636/720/371 637/721/369 508/584/370 509/585/372
f 634/718/373 635/719/374 532/609/375 510/586/376
f 619/701/377 620/702/378 554/633/379 61/298/380
f 554/633/379 555/634/381 62/301/382 61/298/380
f 555/634/381 556/635/383 63/303/384 62/301/382
f 556/635/383 557/636/385 64/305/386 63/303/384
f 557/636/385 558/637/387 65/307/388 64/305/386
f 558/637/387 559/638/389 66/309/390 65/307/388
f 559/638/389 560/639/391 67/311/392 66/309/390
f 560/639/391 561/640/393 68/313/394 67/311/392
f 561/640/393 562/641/395 69/315/396 68/313/394
f 552/630/397 563/642/398 564/643/399 70/317/400
f 618/700/401 619/701/377 61/298/380 72/318/402
f 61/298/380 62/301/382 73/320/403 72/318/402
f 62/301/382 63/303/384 74/321/404 73/320/403
f 63/303/384 64/305/386 75/322/405 74/321/404
f 64/305/386 65/307/388 76/323/406 75/322/405
f 65/307/388 66/309/390 77/324/407 76/323/406
f 66/309/390 67/311/392 78/325/408 77/324/407
f 67/311/392 68/313/394 79/326/409 78/325/408
f 68/313/394 69/315/396 80/327/410 79/326/409
f 551/629/411 552/630/397 70/317/400 81/328/412
f 617/699/413 618/700/401 72/318/402 83/329/414
f 72/318/402 73/320/403 84/331/415 83/329/414
f 73/320/403 74/321/404 85/332/416 84/331/415
f 74/321/404 75/322/405 86/333/417 85/332/416
f 75/322/405 76/323/406 87/334/418 86/333/417
f 76/323/406 77/324/407 88/335/419 87/334/418
f 77/324/407 78/325/408 89/336/420 88/335/419
f 78/325/408 79/326/409 90/337/421 89/336/420
f 79/326/409 80/327/410 91/338/422 90/337/421
f 550/628/423 551/629/411 81/328/412 92/339/424
f 616/698/425 617/699/413 83/329/414 94/340/426
f 83/329/414 84/331/415 95/342/427 94/340/426
f 84/331/415 85/332/416 96/343/428 95/342/427
f 85/332/416 86/333/417 97/344/429 96/343/428
f 86/333/417 87/334/418 98/345/430 97/344/429
f 87/334/418 88/335/419 99/346/431 98/345/430
f 88/335/419 89/336/420 100/347/432 99/346/431
f 89/336/420 90/337/421 101/348/433 100/347/432
f 90/337/421 91/338/422 102/349/434 101/348/433
f 549/627/435 550/628/423 92/339/424 103/350/436
f 615/697/437 616/698/425 94/340/426 105/351/438
f 94/340/426 95/342/427 106/353/439 105/351/438
f 95/342/427 96/343/428 107/354/440 106/353/439
f 96/343/428 97/344/429 108/355/441 107/354/440
f 97/344/429 98/345/430 109/356/442 108/355/441
f 98/345/430 99/346/431 110/357/443 109/356/442
f 99/346/431 100/347/432 111/358/444 110/357/443
f 100/347/432 101/348/433 112/359/445 111/358/444
f 101/348/433 102/349/434 113/360/446 112/359/445
f 548/626/447 549/627/435 103/350/436 114/361/448
f 614/696/449 615/697/437 105/351/438 116/362/450
f 105/351/438 106/353/439 117/364/451 116/362/450
f 106/353/439 107/354/440 118/365/452 117/364/451
f 107/354/440 108/355/441 119/366/453 118/365/452
f 108/355/441 109/356/442 120/367/454 119/366/453
f 109/356/442 110/357/443 121/368/455 120/367/454
f 110/357/443 111/358/444 122/369/456 121/368/455
f 111/358/444 112/359/445 123/370/457 122/369/456
f 112/359/445 113/360/446 124/371/458 123/370/457
f 547/625/459 548/626/447 114/361/448 125/372/460
f 613/695/461 614/696/449 116/362/450 127/373/462
f 116/362/450 117/364/451 128/375/463 127/373/462
f 117/364/451 118/365/452 129/376/464 128/375/463
f 118/365/452 119/366/453 130/377/465 129/376/464
f 119/366/453 120/367/454 131/378/466 130/377/465
f 120/367/454 121/368/455 132/379/467 131/378/466
f 121/368/455 122/369/456 133/380/468 132/379/467
f 122/369/456 123/370/457 134/381/469 133/380/468
f 123/370/457 124/371/458 135/382/470 134/381/469
f 546/624/471 547/625/459 125/372/460 136/383/472
f 612/694/473 613/695/461 127/373/462 138/384/474
f 127/373/462 128/375/463 139/386/475 138/384/474
f 128/375/463 129/376/464 140/387/476 139/386/475
f 129/376/464 130/377/465 141/388/477 140/387/476
f 130/377/465 131/378/466 142/389/478 141/388/477
f 131/378/466 132/379/467 143/390/479 142/389/478
f 132/379/467 133/380/468 144/391/480 143/390/479
f 133/380/468 134/381/469 145/392/481 144/391/480
f 134/381/469 135/382/470 146/393/482 145/392/481
f 545/623/483 546/624/471 136/383/472 147/394/484
f 611/693/485 612/694/473 138/384/474 149/395/486
f 138/384/474 139/386/475 150/397/487 149/395/486
f 139/386/475 140/387/476 151/398/488 150/397/487
f 140/387/476 141/388/477 152/399/489 151/398/488
f 141/388/477 142/389/478 153/400/490 152/399/489
f 142/389/478 143/390/479 154/401/491 153/400/490
f 143/390/479 144/391/480 155/402/492 154/401/491
f 144/391/480 145/392/481 156/403/493 155/402/492
f 145/392/481 146/393/482 157/404/494 156/403/493
f 544/622/495 545/623/483 147/394/484 158/405/496
f 610/692/497 611/693/485 149/395/486 160/406/498
f 149/395/486 150/397/487 161/408/499 160/406/498
f 150/397/487 151/398/488 162/409/500 161/408/499
f 151/398/488 152/399/489 163/410/501 162/409/500
f 152/399/489 153/400/490 164/411/502 163/410/501
f 153/400/490 154/401/491 165/412/503 164/411/502
f 154/401/491 155/402/492 166/413/504 165/412/503
f 155/402/492 156/403/493 167/414/505 166/413/504
f 156/403/493 157/404/494 168/415/506 167/414/505
f 543/621/507 544/622/495 158/405/496 169/416/508
f 609/691/509 610/692/497 160/406/498 171/417/510
f 160/406/498 161/408/499 172/419/511 171/417/510
f 161/408/499 162/409/500 173/420/512 172/419/511
f 162/409/500 163/410/501 174/421/513 173/420/512
f 163/410/501 164/411/502 175/422/514 174/421/513
f 164/411/502 165/412/503 176/423/515 175/422/514
f 165/412/503 166/413/504 177/424/516 176/423/515
f 166/413/504 167/414/505 178/425/517 177/424/516
f 167/414/505 168/415/506 179/426/518 178/425/517
f 542/620/519 543/621/507 169/416/508 180/427/520
f 608/690/521 609/691/509 171/417/510 182/428/522
f 171/417/510 172/419/511 183/430/523 182/428/522
f 172/419/511 173/420/512 184/431/524 183/430/523
f 173/420/512 174/421/513 185/432/525 184/431/524
f 174/421/513 175/422/514 186/433/526 185/432/525
f 175/422/514 176/423/515 187/434/527 186/433/526
f 176/423/515 177/424/516 188/435/528 187/434/527
f 177/424/516 178/425/517 189/436/529 188/435/528
f 178/425/517 179/426/518 190/437/530 189/436/529
f 541/619/531 542/620/519 180/427/520 191/438/532
f 607/689/533 608/690/521 182/428/522 193/439/534
f 182/428/522 183/430/523 194/441/535 193/439/534
f 183/430/523 184/431/524 195/442/536 194/441/535
f 184/431/524 185/432/525 196/443/537 195/442/536
f 185/432/525 186/433/526 197/444/538 196/443/537
f 186/433/526 187/434/527 198/445/539 197/444/538
f 187/434/527 188/435/528 199/446/540 198/445/539
f 188/435/528 189/436/529 200/447/541 199/446/540
f 189/436/529 190/437/530 201/448/542 200/447/541
f 540/618/543 541/619/531 191/438/532 202/449/544
f 606/688/545 607/689/533 193/439/534 204/450/546
f 193/439/534 194/441/535 205/452/547 204/450/546
f 194/441/535 195/442/536 206/453/548 205/452/547
f 195/442/536 196/443/537 207/454/549 206/453/548
f 196/443/537 197/444/538 208/455/550 207/454/549
f 197/444/538 198/445/539 209/456/551 208/455/550
f 198/445/539 199/446/540 210/457/552 209/456/551
f 199/446/540 200/447/541 211/458/553 210/457/552
f 200/447/541 201/448/542 212/459/554 211/458/553
f 539/617/555 540/618/543 202/449/544 213/460/556
f 605/687/557 606/688/545 204/450/546 215/461/558
f 204/450/546 205/452/547 216/463/559 215/461/558
f 205/452/547 206/453/548 217/464/560 216/463/559
f 206/453/548 207/454/549 218/465/561 217/464/560
f 207/454/549 208/455/550 219/466/562 218/465/561
f 208/455/550 209/456/551 220/467/563 219/466/562
f 209/456/551 210/457/552 221/468/564 220/467/563
f 210/457/552 211/458/553 222/469/565 221/468/564
f 211/458/553 212/459/554 223/470/566 222/469/565
f 538/616/567 539/617/555 213/460/556 224/471/568
f 604/686/569 605/687/557 215/461/558 226/472/570
f 215/461/558 216/463/559 227/474/571 226/472/570
f 216/463/559 217/464/560 228/475/572 227/474/571
f 217/464/560 218/465/561 229/476/573 228/475/572
f 218/465/561 219/466/562 230/477/574 229/476/573
f 219/466/562 220/467/563 231/478/575 230/477/574
f 220/467/563 221/468/564 232/479/576 231/478/575
f 221/468/564 222/469/565 233/480/577 232/479/576
f 222/469/565 223/470/566 234/481/578 233/480/577
f 537/615/579 538/616/567 224/471/568 235/482/580
f 603/685/581 604/686/569 226/472/570 237/483/582
f 226/472/570 227/474/571 238/485/583 237/483/582
f 227/474/571 228/475/572 239/486/584 238/485/583
f 228/475/572 229/476/573 240/487/585 239/486/584
f 229/476/573 230/477/574 241/488/586 240/487/585
f 230/477/574 231/478/575 242/489/587 241/488/586
f 231/478/575 232/479/576 243/490/588 242/489/587
f 232/479/576 233/480/577 244/491/589 243/490/588
f 233/480/577 234/481/578 245/492/590 244/491/589
f 536/614/591 537/615/579 235/482/580 246/493/592
f 602/684/593 603/685/581 237/483/582 248/494/594
f 237/483/582 238/485/583 249/496/595 248/494/594
f 238/485/583 239/486/584 250/497/596 249/496/595
f 239/486/584 240/487/585 251/498/597 250/497/596
f 240/487/585 241/488/586 252/499/598 251/498/597
f 241/488/586 242/489/587 253/500/599 252/499/598
f 242/489/587 243/490/588 254/501/600 253/500/599
f 243/490/588 244/491/589 255/502/601 254/501/600
f 244/491/589 245/492/590 256/503/602 255/502/601
f 535/613/603 536/614/591 246/493/592 257/504/604
f 601/683/605 602/684/593 248/494/594 259/505/606
f 248/494/594 249/496/595 260/507/607 259/505/606
f 249/496/595 250/497/596 261/508/608 260/507/607
f 250/497/596 251/498/597 262/509/609 261/508/608
f 251/498/597 252/499/598 263/510/610 262/509/609
f 252/499/598 253/500/599 264/511/611 263/510/610
f 253/500/599 254/501/600 265/512/612 264/511/611
f 254/501/600 255/502/601 266/513/613 265/512/612
f 255/502/601 256/503/602 267/514/614 266/513/613
f 534/612/615 535/613/603 257/504/604 268/515/616
f 600/682/617 622/705/618 623/706/619 270/516/620
f 623/706/619 624/707/621 271/518/622 270/516/620
f 624/707/621 625/708/623 272/519/624 271/518/622
f 625/708/623 626/709/625 273/520/626 272/519/624
f 626/709/625 627/710/627 274/521/628 273/520/626
f 627/710/627 628/711/629 275/522/630 274/521/628
f 628/711/629 629/712/631 276/523/632 275/522/630
f 629/712/631 630/713/633 277/524/634 276/523/632
f 630/713/633 631/714/635 278/525/636 277/524/634
f 533/611/637 632/715/638 633/716/639 279/526/640
f 577/658/641 578/659/642 281/528/643 50/66/644
f 60/76/645 283/529/646 576/656/647 553/631/648
f 50/66/644 281/528/643 284/530/649 51/67/650
f 51/67/650 284/530/649 286/531/651 52/68/652
f 52/68/652 286/531/651 288/532/653 53/69/654
f 53/69/654 288/532/653 290/533/655 54/70/656
f 54/70/656 290/533/655 292/534/657 55/71/658
f 55/71/658 292/534/657 294/535/659 56/72/660
f 56/72/660 294/535/659 296/536/661 57/73/662
f 57/73/662 296/536/661 298/537/663 58/74/664
f 511/588/665 512/589/666 300/538/667 59/75/668
f 564/644/669 565/645/670 301/539/671 70/86/672
f 71/87/673 303/540/674 283/529/646 60/76/645
f 70/86/672 301/539/671 312/541/675 81/97/676
f 82/98/677 314/542/678 303/540/674 71/87/673
f 81/97/676 312/541/675 323/543/679 92/108/680
f 93/109/681 325/544/682 314/542/678 82/98/677
f 92/108/680 323/543/679 334/545/683 103/119/684
f 104/120/685 336/546/686 325/544/682 93/109/681
f 103/119/684 334/545/683 345/547/687 114/130/688
f 115/131/689 347/548/690 336/546/686 104/120/685
f 114/130/688 345/547/687 356/549/691 125/141/692
f 126/142/693 358/550/694 347/548/690 115/131/689
f 125/141/692 356/549/691 367/551/695 136/152/696
f 137/153/697 369/552/698 358/550/694 126/142/693
f 136/152/696 367/551/695 378/553/699 147/163/700
f 148/164/701 380/554/702 369/552/698 137/153/697
f 147/163/700 378/553/699 389/555/703 158/174/704
f 159/175/705 391/556/706 380/554/702 148/164/701
f 158/174/704 389/555/703 400/557/707 169/185/708
f 170/186/709 402/558/710 391/556/706 159/175/705
f 169/185/708 400/557/707 411/559/711 180/196/712
f 181/197/713 413/560/714 402/558/710 170/186/709
f 180/196/712 411/559/711 422/561/715 191/207/716
f 192/208/717 424/562/718 413/560/714 181/197/713
f 191/207/716 422/561/715 433/563/719 202/218/720
f 203/219/721 435/564/722 424/562/718 192/208/717
f 202/218/720 433/563/719 444/565/723 213/229/724
f 214/230/725 446/566/726 435/564/722 203/219/721
f 213/229/724 444/565/723 455/567/727 224/240/728
f 225/241/729 457/568/730 446/566/726 214/230/725
f 224/240/728 455/567/727 466/569/731 235/251/732
f 236/252/733 468/570/734 457/568/730 225/241/729
f 235/251/732 466/569/731 477/571/735 246/262/736
f 247/263/737 479/572/738 468/570/734 236/252/733
f 246/262/736 477/571/735 488/573/739 257/273/740
f 258/274/741 490/574/742 479/572/738 247/263/737
f 257/273/740 488/573/739 499/575/743 268/284/744
f 270/286/745 500/576/746 599/680/747 600/681/748
f 269/285/749 501/577/750 646/730/751 621/703/752
f 271/287/753 502/578/754 500/576/746 270/286/745
f 272/288/755 503/579/756 502/578/754 271/287/753
f 273/289/757 504/580/758 503/579/756 272/288/755
f 274/290/759 505/581/760 504/580/758 273/289/757
f 275/291/761 506/582/762 505/581/760 274/290/759
f 276/292/763 507/583/764 506/582/762 275/291/761
f 277/293/765 508/584/766 507/583/764 276/292/763
f 278/294/767 509/585/768 508/584/766 277/293/765
f 633/717/769 634/718/770 510/586/771 279/295/772
f 279/295/773 510/586/774 532/609/775 533/610/776
f 58/74/664 298/537/663 512/589/666 511/588/665
f 566/646/134 567/647/131 299/85/132 513/590/135
f 299/85/132 311/96/146 514/591/147 513/590/135
f 311/96/146 322/107/158 515/592/159 514/591/147
f 322/107/158 333/118/170 516/593/171 515/592/159
f 333/118/170 344/129/182 517/594/183 516/593/171
f 344/129/182 355/140/194 518/595/195 517/594/183
f 355/140/194 366/151/206 519/596/207 518/595/195
f 366/151/206 377/162/218 520/597/219 519/596/207
f 377/162/218 388/173/230 521/598/231 520/597/219
f 388/173/230 399/184/242 522/599/243 521/598/231
f 399/184/242 410/195/254 523/600/255 522/599/243
f 410/195/254 421/206/266 524/601/267 523/600/255
f 421/206/266 432/217/278 525/602/279 524/601/267
f 432/217/278 443/228/290 526/603/291 525/602/279
f 443/228/290 454/239/302 527/604/303 526/603/291
f 454/239/302 465/250/314 528/605/315 527/604/303
f 465/250/314 476/261/326 529/606/327 528/605/315
f 476/261/326 487/272/338 530/607/339 529/606/327
f 487/272/338 498/283/350 531/608/351 530/607/339
f 635/719/374 636/720/371 509/585/372 532/609/375
f 533/610/776 532/609/775 509/585/768 278/294/767
f 631/714/635 632/715/638 533/611/637 278/525/636
f 256/503/602 535/613/603 534/612/615 267/514/614
f 245/492/590 536/614/591 535/613/603 256/503/602
f 234/481/578 537/615/579 536/614/591 245/492/590
f 223/470/566 538/616/567 537/615/579 234/481/578
f 212/459/554 539/617/555 538/616/567 223/470/566
f 201/448/542 540/618/543 539/617/555 212/459/554
f 190/437/530 541/619/531 540/618/543 201/448/542
f 179/426/518 542/620/519 541/619/531 190/437/530
f 168/415/506 543/621/507 542/620/519 179/426/518
f 157/404/494 544/622/495 543/621/507 168/415/506
f 146/393/482 545/623/483 544/622/495 157/404/494
f 135/382/470 546/624/471 545/623/483 146/393/482
f 124/371/458 547/625/459 546/624/471 135/382/470
f 113/360/446 548/626/447 547/625/459 124/371/458
f 102/349/434 549/627/435 548/626/447 113/360/446
f 91/338/422 550/628/423 549/627/435 102/349/434
f 80/327/410 551/629/411 550/628/423 91/338/422
f 69/315/396 552/630/397 551/629/411 80/327/410
f 562/641/395 563/642/398 552/630/397 69/315/396
f 620/702/378 577/657/777 50/297/778 554/633/379
f 50/297/778 51/300/779 555/634/381 554/633/379
f 51/300/779 52/302/780 556/635/383 555/634/381
f 52/302/780 53/304/781 557/636/385 556/635/383
f 53/304/781 54/306/782 558/637/387 557/636/385
f 54/306/782 55/308/783 559/638/389 558/637/387
f 55/308/783 56/310/784 560/639/391 559/638/389
f 56/310/784 57/312/785 561/640/393 560/639/391
f 57/312/785 58/314/786 562/641/395 561/640/393
f 58/314/786 511/587/787 563/642/398 562/641/395
f 564/643/399 563/642/398 511/587/787 59/316/788
f 59/75/789 300/538/790 565/645/670 564/644/669
f 512/589/791 566/646/134 565/645/133 300/538/792
f 298/537/793 567/647/131 566/646/134 512/589/791
f 296/536/794 568/648/129 567/647/131 298/537/793
f 294/535/795 569/649/127 568/648/129 296/536/794
f 292/534/796 570/650/125 569/649/127 294/535/795
f 290/533/797 571/651/123 570/650/125 292/534/796
f 288/532/798 572/652/121 571/651/123 290/533/797
f 286/531/799 573/653/119 572/652/121 288/532/798
f 284/530/800 574/654/117 573/653/119 286/531/799
f 281/528/801 575/655/113 574/654/117 284/530/800
f 578/659/802 579/660/114 575/655/113 281/528/801
f 553/631/648 576/656/647 280/527/803 49/65/804
f 49/65/805 280/527/806 578/659/642 577/658/641
f 280/527/807 576/656/808 579/660/114 578/659/802
f 580/661/115 579/660/114 576/656/808 283/529/809
f 283/529/809 303/540/810 581/662/137 580/661/115
f 303/540/810 314/542/811 582/663/149 581/662/137
f 314/542/811 325/544/812 583/664/161 582/663/149
f 325/544/812 336/546/813 584/665/173 583/664/161
f 336/546/813 347/548/814 585/666/185 584/665/173
f 347/548/814 358/550/815 586/667/197 585/666/185
f 358/550/815 369/552/816 587/668/209 586/667/197
f 369/552/816 380/554/817 588/669/221 587/668/209
f 380/554/817 391/556/818 589/670/233 588/669/221
f 391/556/818 402/558/819 590/671/245 589/670/233
f 402/558/819 413/560/820 591/672/257 590/671/245
f 413/560/820 424/562/821 592/673/269 591/672/257
f 424/562/821 435/564/822 593/674/281 592/673/269
f 435/564/822 446/566/823 594/675/293 593/674/281
f 446/566/823 457/568/824 595/676/305 594/675/293
f 457/568/824 468/570/825 596/677/317 595/676/305
f 468/570/825 479/572/826 597/678/329 596/677/317
f 479/572/826 490/574/827 598/679/341 597/678/329
f 645/729/354 646/730/828 501/577/829 599/680/355
f 600/681/748 599/680/747 501/577/830 269/285/831
f 621/704/832 622/705/618 600/682/617 269/517/833
f 247/495/834 602/684/593 601/683/605 258/506/835
f 236/484/836 603/685/581 602/684/593 247/495/834
f 225/473/837 604/686/569 603/685/581 236/484/836
f 214/462/838 605/687/557 604/686/569 225/473/837
f 203/451/839 606/688/545 605/687/557 214/462/838
f 192/440/840 607/689/533 606/688/545 203/451/839
f 181/429/841 608/690/521 607/689/533 192/440/840
f 170/418/842 609/691/509 608/690/521 181/429/841
f 159/407/843 610/692/497 609/691/509 170/418/842
f 148/396/844 611/693/485 610/692/497 159/407/843
f 137/385/845 612/694/473 611/693/485 148/396/844
f 126/374/846 613/695/461 612/694/473 137/385/845
f 115/363/847 614/696/449 613/695/461 126/374/846
f 104/352/848 615/697/437 614/696/449 115/363/847
f 93/341/849 616/698/425 615/697/437 104/352/848
f 82/330/850 617/699/413 616/698/425 93/341/849
f 71/319/851 618/700/401 617/699/413 82/330/850
f 60/299/852 619/701/377 618/700/401 71/319/851
f 553/632/853 620/702/378 619/701/377 60/299/852
f 49/296/854 577/657/777 620/702/378 553/632/853
f 258/506/835 601/683/605 622/705/618 621/704/832
f 623/706/619 622/705/618 601/683/605 259/505/606
f 259/505/606 260/507/607 624/707/621 623/706/619
f 260/507/607 261/508/608 625/708/623 624/707/621
f 261/508/608 262/509/609 626/709/625 625/708/623
f 262/509/609 263/510/610 627/710/627 626/709/625
f 263/510/610 264/511/611 628/711/629 627/710/627
f 264/511/611 265/512/612 629/712/631 628/711/629
f 265/512/612 266/513/613 630/713/633 629/712/631
f 266/513/613 267/514/614 631/714/635 630/713/633
f 267/514/614 534/612/615 632/715/638 631/714/635
f 633/716/639 632/715/638 534/612/615 268/515/616
f 268/284/744 499/575/743 634/718/770 633/717/769
f 531/608/351 635/719/374 634/718/373 499/575/352
f 498/283/350 636/720/371 635/719/374 531/608/351
f 497/282/349 637/721/369 636/720/371 498/283/350
f 496/281/348 638/722/367 637/721/369 497/282/349
f 495/280/347 639/723/365 638/722/367 496/281/348
f 494/279/346 640/724/363 639/723/365 495/280/347
f 493/278/345 641/725/361 640/724/363 494/279/346
f 492/277/344 642/726/359 641/725/361 493/278/345
f 491/276/343 643/727/357 642/726/359 492/277/344
f 489/275/342 644/728/353 643/727/357 491/276/343
f 598/679/341 645/729/354 644/728/353 489/275/342
f 490/574/827 646/730/828 645/729/354 598/679/341
f 621/703/752 646/730/751 490/574/742 258/274/741
